{
  "type" : "SQLRoot",
  "id" : 100,
  "_defaultDatabase" : {
    "type" : "Database",
    "id" : 101,
    "_defaultSchema" : {
      "type" : "Schema",
      "id" : 102,
      "views" : [ ],
      "triggers" : [ ],
      "tables" : [ ],
      "functions" : [ ],
      "name" : "SCH",
      "startLine" : 0,
      "endLine" : 0,
      "startCol" : 0,
      "endCol" : 0
    },
    "statements" : [ {
      "type" : "AlterTable",
      "id" : 104,
      "_table" : {
        "type" : "Id",
        "id" : 103,
        "quoted" : false,
        "name" : "test",
        "startLine" : 1,
        "endLine" : 1,
        "startCol" : 12,
        "endCol" : 15,
        "path" : "<unknown>"
      },
      "table" : 103,
      "error" : false,
      "internalId" : 1,
      "errorLine" : 0,
      "errorCol" : 0,
      "startLine" : 1,
      "endLine" : 1,
      "startCol" : 0,
      "endCol" : 15,
      "path" : "<unknown>"
    } ],
    "defaultSchema" : 102,
    "schemas" : [ 102 ],
    "types" : [ ],
    "name" : "DB",
    "startLine" : 0,
    "endLine" : 0,
    "startCol" : 0,
    "endCol" : 0
  },
  "innerFunctions" : [ ],
  "databases" : [ 101 ],
  "defaultDatabase" : 101,
  "startLine" : 0,
  "endLine" : 0,
  "startCol" : 0,
  "endCol" : 0
}