{
  "type" : "SQLRoot",
  "id" : 100,
  "_defaultDatabase" : {
    "type" : "Database",
    "id" : 101,
    "_defaultSchema" : {
      "type" : "Schema",
      "id" : 102,
      "views" : [ ],
      "functions" : [ ],
      "triggers" : [ ],
      "tables" : [ {
        "type" : "Table",
        "id" : 109,
        "temporary" : false,
        "external" : false,
        "columns" : [ ],
        "uniqueKeys" : [ ],
        "foreignKeys" : [ ],
        "name" : "tab1",
        "startLine" : 0,
        "endLine" : 0,
        "startCol" : 0,
        "endCol" : 0
      } ],
      "name" : "SCH",
      "startLine" : 0,
      "endLine" : 0,
      "startCol" : 0,
      "endCol" : 0
    },
    "statements" : [ {
      "type" : "Select",
      "id" : 108,
      "_query" : {
        "type" : "SelectExpression",
        "id" : 106,
        "_columnList" : {
          "type" : "ExpressionList",
          "id" : 104,
          "expressions" : [ {
            "type" : "Id",
            "id" : 103,
            "quoted" : false,
            "name" : "x",
            "startLine" : 1,
            "endLine" : 1,
            "startCol" : 7,
            "endCol" : 7,
            "path" : "<unknown>"
          }, {
            "type" : "Id",
            "id" : 105,
            "quoted" : false,
            "name" : "y",
            "startLine" : 1,
            "endLine" : 1,
            "startCol" : 9,
            "endCol" : 9,
            "path" : "<unknown>"
          } ],
          "startLine" : 1,
          "endLine" : 1,
          "startCol" : 7,
          "endCol" : 9,
          "path" : "<unknown>"
        },
        "_from" : {
          "type" : "Id",
          "id" : 107,
          "_refersTo" : 109,
          "quoted" : false,
          "refersTo" : 109,
          "name" : "tab1",
          "startLine" : 1,
          "endLine" : 1,
          "startCol" : 16,
          "endCol" : 19,
          "path" : "<unknown>"
        },
        "columnList" : 104,
        "from" : 107,
        "startLine" : 1,
        "endLine" : 1,
        "startCol" : 0,
        "endCol" : 19,
        "path" : "<unknown>"
      },
      "query" : 106,
      "internalId" : 1,
      "error" : false,
      "errorLine" : 0,
      "errorCol" : 0,
      "startLine" : 1,
      "endLine" : 1,
      "startCol" : 0,
      "endCol" : 19,
      "path" : "<unknown>"
    } ],
    "defaultSchema" : 102,
    "schemas" : [ 102 ],
    "types" : [ ],
    "name" : "DB",
    "startLine" : 0,
    "endLine" : 0,
    "startCol" : 0,
    "endCol" : 0
  },
  "databases" : [ 101 ],
  "defaultDatabase" : 101,
  "innerFunctions" : [ ],
  "startLine" : 0,
  "endLine" : 0,
  "startCol" : 0,
  "endCol" : 0
}