CFG of method: public void testTry9(java.io.InputStream, java.io.InputStream) 
Entry: 0
Exit: 1
Basicblocks:
  BasicBlock: 0
  Prevs: 
  Succs: 2
  Statements: 

  BasicBlock: 1
  Prevs: 5
  Succs: 
  Statements: 

  BasicBlock: 2
  Prevs: 0
  Succs: 3, 4
  Statements: 
  : int y=0;

  : BufferedInputStream s1=new BufferedInputStream(in1)
  : BufferedInputStream s2=new BufferedInputStream(in2)

  BasicBlock: 3
  Prevs: 2
  Succs: 5
  Statements: 
  : y=s1.available();


  BasicBlock: 4
  Prevs: 2
  Succs: 5
  Statements: 
  : System.err.println("Error");


  BasicBlock: 5
  Prevs: 3, 4
  Succs: 1
  Statements: 
  : y+=10;


