CFG of method: public void testForBreak1(int) 
Entry: 0
Exit: 1
Basicblocks:
  BasicBlock: 0
  Prevs: 
  Succs: 2
  Statements: 

  BasicBlock: 1
  Prevs: 3, 5, 6
  Succs: 
  Statements: 

  BasicBlock: 2
  Prevs: 0
  Succs: 3
  Statements: 
  : int i=0, j=2

  BasicBlock: 3
  Prevs: 2
  Succs: 1, 4
  Statements: 
  : i < 5

  BasicBlock: 4
  Prevs: 3
  Succs: 5, 6
  Statements: 
  : System.out.println("Iteration: " + i);

  : i == 3

  BasicBlock: 5
  Prevs: 4
  Succs: 1
  Statements: 
  : break;


  BasicBlock: 6
  Prevs: 4
  Succs: 1
  Statements: 
  : i++
  : j++

