CFG of method: public void testDo3(int) 
Entry: 0
Exit: 1
Basicblocks:
  BasicBlock: 0
  Prevs: 
  Succs: 2
  Statements: 

  BasicBlock: 1
  Prevs: 3, 5
  Succs: 
  Statements: 

  BasicBlock: 2
  Prevs: 0
  Succs: 3, 4
  Statements: 
  : x > 10

  BasicBlock: 3
  Prevs: 2
  Succs: 1
  Statements: 
  : break;


  BasicBlock: 4
  Prevs: 2
  Succs: 5
  Statements: 
  : x=x + 1;


  BasicBlock: 5
  Prevs: 4
  Succs: 1
  Statements: 
  : x <= 30

