CFG of method: public void testEnhancedForBreak1(java.lang.Object) 
Entry: 0
Exit: 1
Basicblocks:
  BasicBlock: 0
  Prevs: 
  Succs: 2
  Statements: 

  BasicBlock: 1
  Prevs: 3, 5, 6
  Succs: 
  Statements: 

  BasicBlock: 2
  Prevs: 0
  Succs: 3
  Statements: 
  : List<Object> l=new ArrayList<>();


  BasicBlock: 3
  Prevs: 2
  Succs: 1, 4
  Statements: 
  : Object o
  : l

  BasicBlock: 4
  Prevs: 3
  Succs: 5, 6
  Statements: 
  : System.out.println(o2);

  : o.equals(o2)

  BasicBlock: 5
  Prevs: 4
  Succs: 1
  Statements: 
  : break;


  BasicBlock: 6
  Prevs: 4
  Succs: 1
  Statements: 
  : System.out.println(o);


