CFG of method: public void testForContinue3(int) 
Entry: 0
Exit: 1
Basicblocks:
  BasicBlock: 0
  Prevs: 
  Succs: 2
  Statements: 

  BasicBlock: 1
  Prevs: 3, 5
  Succs: 
  Statements: 

  BasicBlock: 2
  Prevs: 0
  Succs: 3
  Statements: 
  : int i=0

  BasicBlock: 3
  Prevs: 2
  Succs: 1, 4
  Statements: 
  : i < 5

  BasicBlock: 4
  Prevs: 3
  Succs: 
  Statements: 
  : continue;


  BasicBlock: 5
  Prevs: 
  Succs: 1
  Statements: 
  : i++

