{
  "type" : "SQLRoot",
  "id" : 100,
  "_defaultDatabase" : {
    "type" : "Database",
    "id" : 101,
    "_defaultSchema" : {
      "type" : "Schema",
      "id" : 102,
      "tables" : [ ],
      "functions" : [ ],
      "views" : [ ],
      "triggers" : [ ],
      "name" : "SCH",
      "startLine" : 0,
      "endLine" : 0,
      "startCol" : 0,
      "endCol" : 0
    },
    "schemas" : [ 102 ],
    "statements" : [ {
      "type" : "Select",
      "id" : 112,
      "_query" : {
        "type" : "SelectExpression",
        "id" : 107,
        "_columnList" : {
          "type" : "ExpressionList",
          "id" : 104,
          "expressions" : [ {
            "type" : "Id",
            "id" : 103,
            "quoted" : false,
            "name" : "a",
            "path" : "<unknown>",
            "startLine" : 1,
            "endLine" : 1,
            "startCol" : 7,
            "endCol" : 7
          }, {
            "type" : "Id",
            "id" : 105,
            "quoted" : false,
            "name" : "b",
            "path" : "<unknown>",
            "startLine" : 1,
            "endLine" : 1,
            "startCol" : 9,
            "endCol" : 9
          }, {
            "type" : "Id",
            "id" : 106,
            "quoted" : false,
            "name" : "c",
            "path" : "<unknown>",
            "startLine" : 1,
            "endLine" : 1,
            "startCol" : 11,
            "endCol" : 11
          } ],
          "path" : "<unknown>",
          "startLine" : 1,
          "endLine" : 1,
          "startCol" : 7,
          "endCol" : 11
        },
        "_from" : {
          "type" : "Id",
          "id" : 108,
          "quoted" : false,
          "name" : "t",
          "path" : "<unknown>",
          "startLine" : 1,
          "endLine" : 1,
          "startCol" : 18,
          "endCol" : 18
        },
        "_where" : {
          "type" : "BinaryExpression",
          "id" : 111,
          "_left" : {
            "type" : "Id",
            "id" : 109,
            "quoted" : false,
            "name" : "a",
            "path" : "<unknown>",
            "startLine" : 1,
            "endLine" : 1,
            "startCol" : 26,
            "endCol" : 26
          },
          "_right" : {
            "type" : "Literal",
            "id" : 110,
            "kind" : "INTEGER",
            "value" : "2",
            "path" : "<unknown>",
            "startLine" : 1,
            "endLine" : 1,
            "startCol" : 28,
            "endCol" : 28
          },
          "kind" : "EQUALS",
          "right" : 110,
          "left" : 109,
          "path" : "<unknown>",
          "startLine" : 1,
          "endLine" : 1,
          "startCol" : 26,
          "endCol" : 28
        },
        "from" : 108,
        "where" : 111,
        "columnList" : 104,
        "path" : "<unknown>",
        "startLine" : 1,
        "endLine" : 1,
        "startCol" : 0,
        "endCol" : 28
      },
      "query" : 107,
      "internalId" : 1,
      "error" : false,
      "errorLine" : 0,
      "errorCol" : 0,
      "path" : "<unknown>",
      "startLine" : 1,
      "endLine" : 1,
      "startCol" : 0,
      "endCol" : 28
    }, {
      "type" : "Select",
      "id" : 122,
      "_query" : {
        "type" : "SelectExpression",
        "id" : 117,
        "_columnList" : {
          "type" : "ExpressionList",
          "id" : 114,
          "expressions" : [ {
            "type" : "Id",
            "id" : 113,
            "quoted" : false,
            "name" : "d",
            "path" : "<unknown>",
            "startLine" : 1,
            "endLine" : 1,
            "startCol" : 7,
            "endCol" : 7
          }, {
            "type" : "Id",
            "id" : 115,
            "quoted" : false,
            "name" : "e",
            "path" : "<unknown>",
            "startLine" : 1,
            "endLine" : 1,
            "startCol" : 9,
            "endCol" : 9
          }, {
            "type" : "Id",
            "id" : 116,
            "quoted" : false,
            "name" : "f",
            "path" : "<unknown>",
            "startLine" : 1,
            "endLine" : 1,
            "startCol" : 11,
            "endCol" : 11
          } ],
          "path" : "<unknown>",
          "startLine" : 1,
          "endLine" : 1,
          "startCol" : 7,
          "endCol" : 11
        },
        "_from" : {
          "type" : "Id",
          "id" : 118,
          "quoted" : false,
          "name" : "t2",
          "path" : "<unknown>",
          "startLine" : 1,
          "endLine" : 1,
          "startCol" : 18,
          "endCol" : 19
        },
        "_where" : {
          "type" : "BinaryExpression",
          "id" : 121,
          "_left" : {
            "type" : "Id",
            "id" : 119,
            "quoted" : false,
            "name" : "d",
            "path" : "<unknown>",
            "startLine" : 1,
            "endLine" : 1,
            "startCol" : 27,
            "endCol" : 27
          },
          "_right" : {
            "type" : "Literal",
            "id" : 120,
            "kind" : "INTEGER",
            "value" : "3",
            "path" : "<unknown>",
            "startLine" : 1,
            "endLine" : 1,
            "startCol" : 29,
            "endCol" : 29
          },
          "kind" : "EQUALS",
          "right" : 120,
          "left" : 119,
          "path" : "<unknown>",
          "startLine" : 1,
          "endLine" : 1,
          "startCol" : 27,
          "endCol" : 29
        },
        "from" : 118,
        "where" : 121,
        "columnList" : 114,
        "path" : "<unknown>",
        "startLine" : 1,
        "endLine" : 1,
        "startCol" : 0,
        "endCol" : 29
      },
      "query" : 117,
      "internalId" : 1,
      "error" : false,
      "errorLine" : 0,
      "errorCol" : 0,
      "path" : "<unknown>",
      "startLine" : 1,
      "endLine" : 1,
      "startCol" : 0,
      "endCol" : 29
    } ],
    "defaultSchema" : 102,
    "types" : [ ],
    "name" : "DB",
    "startLine" : 0,
    "endLine" : 0,
    "startCol" : 0,
    "endCol" : 0
  },
  "innerFunctions" : [ ],
  "databases" : [ 101 ],
  "defaultDatabase" : 101,
  "startLine" : 0,
  "endLine" : 0,
  "startCol" : 0,
  "endCol" : 0
}