{
  "type" : "SQLRoot",
  "id" : 100,
  "_defaultDatabase" : {
    "type" : "Database",
    "id" : 101,
    "_defaultSchema" : {
      "type" : "Schema",
      "id" : 102,
      "views" : [ ],
      "functions" : [ ],
      "triggers" : [ ],
      "tables" : [ ],
      "name" : "SCH",
      "startLine" : 0,
      "endLine" : 0,
      "startCol" : 0,
      "endCol" : 0
    },
    "statements" : [ {
      "type" : "ParserError",
      "id" : 155,
      "internalId" : 0,
      "errorMessage" : "sqlinspect.sql.asg.common.ASGException: Null token in toJoinKind!",
      "error" : true,
      "errorLine" : 0,
      "errorCol" : 0,
      "startLine" : 0,
      "endLine" : 0,
      "startCol" : 0,
      "endCol" : 0,
      "path" : "../../src/resources/input/impala/fromclause2.sql"
    }, {
      "type" : "ParserError",
      "id" : 166,
      "internalId" : 0,
      "errorMessage" : "sqlinspect.sql.asg.common.ASGException: Null token in toJoinKind!",
      "error" : true,
      "errorLine" : 0,
      "errorCol" : 0,
      "startLine" : 0,
      "endLine" : 0,
      "startCol" : 0,
      "endCol" : 0,
      "path" : "../../src/resources/input/impala/fromclause2.sql"
    }, {
      "type" : "ParserError",
      "id" : 182,
      "internalId" : 0,
      "errorMessage" : "sqlinspect.sql.asg.common.ASGException: Null token in toJoinKind!",
      "error" : true,
      "errorLine" : 0,
      "errorCol" : 0,
      "startLine" : 0,
      "endLine" : 0,
      "startCol" : 0,
      "endCol" : 0,
      "path" : "../../src/resources/input/impala/fromclause2.sql"
    }, {
      "type" : "Select",
      "id" : 183,
      "internalId" : 0,
      "errorMessage" : "no viable alternative at input 'select * from src src1  left outer join src src2 on (src1.key = src2.key and)'",
      "error" : true,
      "errorLine" : 17,
      "errorCol" : 76,
      "startLine" : 17,
      "endLine" : 17,
      "startCol" : 77,
      "endCol" : 77,
      "path" : "../../src/resources/input/impala/fromclause2.sql"
    }, {
      "type" : "Select",
      "id" : 184,
      "internalId" : 0,
      "errorMessage" : "no viable alternative at input 'select * from src src1 join src src2 using (1'",
      "error" : true,
      "errorLine" : 20,
      "errorCol" : 44,
      "startLine" : 20,
      "endLine" : 20,
      "startCol" : 46,
      "endCol" : 46,
      "path" : "../../src/resources/input/impala/fromclause2.sql"
    }, {
      "type" : "Select",
      "id" : 185,
      "internalId" : 0,
      "errorMessage" : "no viable alternative at input 'select * from src src1 join src src2 using (f('",
      "error" : true,
      "errorLine" : 21,
      "errorCol" : 45,
      "startLine" : 21,
      "endLine" : 21,
      "startCol" : 50,
      "endCol" : 50,
      "path" : "../../src/resources/input/impala/fromclause2.sql"
    }, {
      "type" : "Select",
      "id" : 186,
      "internalId" : 0,
      "errorMessage" : "no viable alternative at input 'select * from src src1 join src src2 using id'",
      "error" : true,
      "errorLine" : 23,
      "errorCol" : 43,
      "startLine" : 23,
      "endLine" : 23,
      "startCol" : 45,
      "endCol" : 45,
      "path" : "../../src/resources/input/impala/fromclause2.sql"
    }, {
      "type" : "Select",
      "id" : 194,
      "_query" : {
        "type" : "SelectExpression",
        "id" : 188,
        "_columnList" : {
          "type" : "Asterisk",
          "id" : 187,
          "startLine" : 26,
          "endLine" : 26,
          "startCol" : 7,
          "endCol" : 7,
          "path" : "../../src/resources/input/impala/fromclause2.sql"
        },
        "_from" : {
          "type" : "Join",
          "id" : 193,
          "_left" : {
            "type" : "TableRef",
            "id" : 190,
            "_table" : {
              "type" : "Id",
              "id" : 189,
              "quoted" : false,
              "name" : "a",
              "startLine" : 26,
              "endLine" : 26,
              "startCol" : 14,
              "endCol" : 14,
              "path" : "../../src/resources/input/impala/fromclause2.sql"
            },
            "table" : 189,
            "startLine" : 26,
            "endLine" : 26,
            "startCol" : 14,
            "endCol" : 14,
            "path" : "../../src/resources/input/impala/fromclause2.sql"
          },
          "_right" : {
            "type" : "TableRef",
            "id" : 192,
            "_table" : {
              "type" : "Id",
              "id" : 191,
              "quoted" : false,
              "name" : "b",
              "startLine" : 26,
              "endLine" : 26,
              "startCol" : 27,
              "endCol" : 27,
              "path" : "../../src/resources/input/impala/fromclause2.sql"
            },
            "table" : 191,
            "startLine" : 26,
            "endLine" : 26,
            "startCol" : 27,
            "endCol" : 27,
            "path" : "../../src/resources/input/impala/fromclause2.sql"
          },
          "kind" : "CROSS",
          "left" : 190,
          "right" : 192,
          "startLine" : 26,
          "endLine" : 26,
          "startCol" : 14,
          "endCol" : 27,
          "path" : "../../src/resources/input/impala/fromclause2.sql"
        },
        "columnList" : 187,
        "from" : 193,
        "startLine" : 26,
        "endLine" : 26,
        "startCol" : 0,
        "endCol" : 27,
        "path" : "../../src/resources/input/impala/fromclause2.sql"
      },
      "query" : 188,
      "internalId" : 0,
      "errorMessage" : "mismatched input 'on' expecting {KW_CROSS, KW_FULL, KW_GROUP, KW_HAVING, KW_INNER, KW_JOIN, KW_LEFT, KW_LIMIT, KW_ORDER, KW_RIGHT, KW_STRAIGHT_JOIN, KW_TABLESAMPLE, KW_UNION, KW_WHERE, ';', ',', '.', '[', COMMENTED_PLAN_HINT_START}",
      "error" : true,
      "errorLine" : 26,
      "errorCol" : 29,
      "startLine" : 26,
      "endLine" : 26,
      "startCol" : 0,
      "endCol" : 27,
      "path" : "../../src/resources/input/impala/fromclause2.sql"
    }, {
      "type" : "Select",
      "id" : 202,
      "_query" : {
        "type" : "SelectExpression",
        "id" : 196,
        "_columnList" : {
          "type" : "Asterisk",
          "id" : 195,
          "startLine" : 27,
          "endLine" : 27,
          "startCol" : 7,
          "endCol" : 7,
          "path" : "../../src/resources/input/impala/fromclause2.sql"
        },
        "_from" : {
          "type" : "Join",
          "id" : 201,
          "_left" : {
            "type" : "TableRef",
            "id" : 198,
            "_table" : {
              "type" : "Id",
              "id" : 197,
              "quoted" : false,
              "name" : "a",
              "startLine" : 27,
              "endLine" : 27,
              "startCol" : 14,
              "endCol" : 14,
              "path" : "../../src/resources/input/impala/fromclause2.sql"
            },
            "table" : 197,
            "startLine" : 27,
            "endLine" : 27,
            "startCol" : 14,
            "endCol" : 14,
            "path" : "../../src/resources/input/impala/fromclause2.sql"
          },
          "_right" : {
            "type" : "TableRef",
            "id" : 200,
            "_table" : {
              "type" : "Id",
              "id" : 199,
              "quoted" : false,
              "name" : "b",
              "startLine" : 27,
              "endLine" : 27,
              "startCol" : 27,
              "endCol" : 27,
              "path" : "../../src/resources/input/impala/fromclause2.sql"
            },
            "table" : 199,
            "startLine" : 27,
            "endLine" : 27,
            "startCol" : 27,
            "endCol" : 27,
            "path" : "../../src/resources/input/impala/fromclause2.sql"
          },
          "kind" : "CROSS",
          "left" : 198,
          "right" : 200,
          "startLine" : 27,
          "endLine" : 27,
          "startCol" : 14,
          "endCol" : 27,
          "path" : "../../src/resources/input/impala/fromclause2.sql"
        },
        "columnList" : 195,
        "from" : 201,
        "startLine" : 27,
        "endLine" : 27,
        "startCol" : 0,
        "endCol" : 27,
        "path" : "../../src/resources/input/impala/fromclause2.sql"
      },
      "query" : 196,
      "internalId" : 0,
      "errorMessage" : "mismatched input 'using' expecting {KW_CROSS, KW_FULL, KW_GROUP, KW_HAVING, KW_INNER, KW_JOIN, KW_LEFT, KW_LIMIT, KW_ORDER, KW_RIGHT, KW_STRAIGHT_JOIN, KW_TABLESAMPLE, KW_UNION, KW_WHERE, ';', ',', '.', '[', COMMENTED_PLAN_HINT_START}",
      "error" : true,
      "errorLine" : 27,
      "errorCol" : 29,
      "startLine" : 27,
      "endLine" : 27,
      "startCol" : 0,
      "endCol" : 27,
      "path" : "../../src/resources/input/impala/fromclause2.sql"
    } ],
    "defaultSchema" : 102,
    "schemas" : [ 102 ],
    "types" : [ ],
    "name" : "DB",
    "startLine" : 0,
    "endLine" : 0,
    "startCol" : 0,
    "endCol" : 0
  },
  "databases" : [ 101 ],
  "defaultDatabase" : 101,
  "innerFunctions" : [ ],
  "startLine" : 0,
  "endLine" : 0,
  "startCol" : 0,
  "endCol" : 0
}