{
  "type" : "SQLRoot",
  "id" : 100,
  "_defaultDatabase" : {
    "type" : "Database",
    "id" : 101,
    "_defaultSchema" : {
      "type" : "Schema",
      "id" : 102,
      "views" : [ ],
      "functions" : [ ],
      "triggers" : [ ],
      "tables" : [ ],
      "name" : "SCH",
      "startLine" : 0,
      "endLine" : 0,
      "startCol" : 0,
      "endCol" : 0
    },
    "statements" : [ {
      "type" : "Select",
      "id" : 105,
      "_query" : {
        "type" : "SelectExpression",
        "id" : 104,
        "_columnList" : {
          "type" : "Literal",
          "id" : 103,
          "kind" : "DECIMAL",
          "value" : "-128",
          "startLine" : 1,
          "endLine" : 1,
          "startCol" : 8,
          "endCol" : 10,
          "path" : "<unknown>"
        },
        "columnList" : 103,
        "startLine" : 1,
        "endLine" : 1,
        "startCol" : 0,
        "endCol" : 10,
        "path" : "<unknown>"
      },
      "query" : 104,
      "internalId" : 1,
      "error" : false,
      "errorLine" : 0,
      "errorCol" : 0,
      "startLine" : 1,
      "endLine" : 1,
      "startCol" : 0,
      "endCol" : 10,
      "path" : "<unknown>"
    }, {
      "type" : "Select",
      "id" : 108,
      "_query" : {
        "type" : "SelectExpression",
        "id" : 107,
        "_columnList" : {
          "type" : "Literal",
          "id" : 106,
          "kind" : "DECIMAL",
          "value" : "127",
          "startLine" : 2,
          "endLine" : 2,
          "startCol" : 7,
          "endCol" : 9,
          "path" : "<unknown>"
        },
        "columnList" : 106,
        "startLine" : 2,
        "endLine" : 2,
        "startCol" : 0,
        "endCol" : 9,
        "path" : "<unknown>"
      },
      "query" : 107,
      "internalId" : 1,
      "error" : false,
      "errorLine" : 0,
      "errorCol" : 0,
      "startLine" : 2,
      "endLine" : 2,
      "startCol" : 0,
      "endCol" : 9,
      "path" : "<unknown>"
    }, {
      "type" : "Select",
      "id" : 111,
      "_query" : {
        "type" : "SelectExpression",
        "id" : 110,
        "_columnList" : {
          "type" : "Literal",
          "id" : 109,
          "kind" : "DECIMAL",
          "value" : "-32768",
          "startLine" : 3,
          "endLine" : 3,
          "startCol" : 8,
          "endCol" : 12,
          "path" : "<unknown>"
        },
        "columnList" : 109,
        "startLine" : 3,
        "endLine" : 3,
        "startCol" : 0,
        "endCol" : 12,
        "path" : "<unknown>"
      },
      "query" : 110,
      "internalId" : 1,
      "error" : false,
      "errorLine" : 0,
      "errorCol" : 0,
      "startLine" : 3,
      "endLine" : 3,
      "startCol" : 0,
      "endCol" : 12,
      "path" : "<unknown>"
    }, {
      "type" : "Select",
      "id" : 114,
      "_query" : {
        "type" : "SelectExpression",
        "id" : 113,
        "_columnList" : {
          "type" : "Literal",
          "id" : 112,
          "kind" : "DECIMAL",
          "value" : "32767",
          "startLine" : 4,
          "endLine" : 4,
          "startCol" : 7,
          "endCol" : 11,
          "path" : "<unknown>"
        },
        "columnList" : 112,
        "startLine" : 4,
        "endLine" : 4,
        "startCol" : 0,
        "endCol" : 11,
        "path" : "<unknown>"
      },
      "query" : 113,
      "internalId" : 1,
      "error" : false,
      "errorLine" : 0,
      "errorCol" : 0,
      "startLine" : 4,
      "endLine" : 4,
      "startCol" : 0,
      "endCol" : 11,
      "path" : "<unknown>"
    }, {
      "type" : "Select",
      "id" : 117,
      "_query" : {
        "type" : "SelectExpression",
        "id" : 116,
        "_columnList" : {
          "type" : "Literal",
          "id" : 115,
          "kind" : "DECIMAL",
          "value" : "-2147483648",
          "startLine" : 5,
          "endLine" : 5,
          "startCol" : 8,
          "endCol" : 17,
          "path" : "<unknown>"
        },
        "columnList" : 115,
        "startLine" : 5,
        "endLine" : 5,
        "startCol" : 0,
        "endCol" : 17,
        "path" : "<unknown>"
      },
      "query" : 116,
      "internalId" : 1,
      "error" : false,
      "errorLine" : 0,
      "errorCol" : 0,
      "startLine" : 5,
      "endLine" : 5,
      "startCol" : 0,
      "endCol" : 17,
      "path" : "<unknown>"
    }, {
      "type" : "Select",
      "id" : 120,
      "_query" : {
        "type" : "SelectExpression",
        "id" : 119,
        "_columnList" : {
          "type" : "Literal",
          "id" : 118,
          "kind" : "DECIMAL",
          "value" : "2147483647",
          "startLine" : 6,
          "endLine" : 6,
          "startCol" : 7,
          "endCol" : 16,
          "path" : "<unknown>"
        },
        "columnList" : 118,
        "startLine" : 6,
        "endLine" : 6,
        "startCol" : 0,
        "endCol" : 16,
        "path" : "<unknown>"
      },
      "query" : 119,
      "internalId" : 1,
      "error" : false,
      "errorLine" : 0,
      "errorCol" : 0,
      "startLine" : 6,
      "endLine" : 6,
      "startCol" : 0,
      "endCol" : 16,
      "path" : "<unknown>"
    }, {
      "type" : "Select",
      "id" : 123,
      "_query" : {
        "type" : "SelectExpression",
        "id" : 122,
        "_columnList" : {
          "type" : "Literal",
          "id" : 121,
          "kind" : "DECIMAL",
          "value" : "-9223372036854775808",
          "startLine" : 7,
          "endLine" : 7,
          "startCol" : 8,
          "endCol" : 26,
          "path" : "<unknown>"
        },
        "columnList" : 121,
        "startLine" : 7,
        "endLine" : 7,
        "startCol" : 0,
        "endCol" : 26,
        "path" : "<unknown>"
      },
      "query" : 122,
      "internalId" : 1,
      "error" : false,
      "errorLine" : 0,
      "errorCol" : 0,
      "startLine" : 7,
      "endLine" : 7,
      "startCol" : 0,
      "endCol" : 26,
      "path" : "<unknown>"
    }, {
      "type" : "Select",
      "id" : 126,
      "_query" : {
        "type" : "SelectExpression",
        "id" : 125,
        "_columnList" : {
          "type" : "Literal",
          "id" : 124,
          "kind" : "DECIMAL",
          "value" : "9223372036854775807",
          "startLine" : 8,
          "endLine" : 8,
          "startCol" : 7,
          "endCol" : 25,
          "path" : "<unknown>"
        },
        "columnList" : 124,
        "startLine" : 8,
        "endLine" : 8,
        "startCol" : 0,
        "endCol" : 25,
        "path" : "<unknown>"
      },
      "query" : 125,
      "internalId" : 1,
      "error" : false,
      "errorLine" : 0,
      "errorCol" : 0,
      "startLine" : 8,
      "endLine" : 8,
      "startCol" : 0,
      "endCol" : 25,
      "path" : "<unknown>"
    }, {
      "type" : "Select",
      "id" : 129,
      "_query" : {
        "type" : "SelectExpression",
        "id" : 128,
        "_columnList" : {
          "type" : "Literal",
          "id" : 127,
          "kind" : "DECIMAL",
          "value" : "-92233720368547758081",
          "startLine" : 9,
          "endLine" : 9,
          "startCol" : 8,
          "endCol" : 27,
          "path" : "<unknown>"
        },
        "columnList" : 127,
        "startLine" : 9,
        "endLine" : 9,
        "startCol" : 0,
        "endCol" : 27,
        "path" : "<unknown>"
      },
      "query" : 128,
      "internalId" : 1,
      "error" : false,
      "errorLine" : 0,
      "errorCol" : 0,
      "startLine" : 9,
      "endLine" : 9,
      "startCol" : 0,
      "endCol" : 27,
      "path" : "<unknown>"
    }, {
      "type" : "Select",
      "id" : 132,
      "_query" : {
        "type" : "SelectExpression",
        "id" : 131,
        "_columnList" : {
          "type" : "Literal",
          "id" : 130,
          "kind" : "DECIMAL",
          "value" : "92233720368547758071",
          "startLine" : 10,
          "endLine" : 10,
          "startCol" : 7,
          "endCol" : 26,
          "path" : "<unknown>"
        },
        "columnList" : 130,
        "startLine" : 10,
        "endLine" : 10,
        "startCol" : 0,
        "endCol" : 26,
        "path" : "<unknown>"
      },
      "query" : 131,
      "internalId" : 1,
      "error" : false,
      "errorLine" : 0,
      "errorCol" : 0,
      "startLine" : 10,
      "endLine" : 10,
      "startCol" : 0,
      "endCol" : 26,
      "path" : "<unknown>"
    }, {
      "type" : "Select",
      "id" : 135,
      "_query" : {
        "type" : "SelectExpression",
        "id" : 134,
        "_columnList" : {
          "type" : "Literal",
          "id" : 133,
          "kind" : "DECIMAL",
          "value" : "9223372036854775808",
          "startLine" : 11,
          "endLine" : 11,
          "startCol" : 7,
          "endCol" : 25,
          "path" : "<unknown>"
        },
        "columnList" : 133,
        "startLine" : 11,
        "endLine" : 11,
        "startCol" : 0,
        "endCol" : 25,
        "path" : "<unknown>"
      },
      "query" : 134,
      "internalId" : 1,
      "error" : false,
      "errorLine" : 0,
      "errorCol" : 0,
      "startLine" : 11,
      "endLine" : 11,
      "startCol" : 0,
      "endCol" : 25,
      "path" : "<unknown>"
    }, {
      "type" : "Select",
      "id" : 138,
      "_query" : {
        "type" : "SelectExpression",
        "id" : 137,
        "_columnList" : {
          "type" : "Literal",
          "id" : 136,
          "kind" : "DECIMAL",
          "value" : "9223372036854775808",
          "startLine" : 12,
          "endLine" : 12,
          "startCol" : 7,
          "endCol" : 25,
          "path" : "<unknown>"
        },
        "columnList" : 136,
        "startLine" : 12,
        "endLine" : 12,
        "startCol" : 0,
        "endCol" : 25,
        "path" : "<unknown>"
      },
      "query" : 137,
      "internalId" : 1,
      "error" : false,
      "errorLine" : 0,
      "errorCol" : 0,
      "startLine" : 12,
      "endLine" : 12,
      "startCol" : 0,
      "endCol" : 25,
      "path" : "<unknown>"
    }, {
      "type" : "Select",
      "id" : 141,
      "_query" : {
        "type" : "SelectExpression",
        "id" : 140,
        "_columnList" : {
          "type" : "Literal",
          "id" : 139,
          "kind" : "DECIMAL",
          "value" : "1.4E-45",
          "startLine" : 13,
          "endLine" : 13,
          "startCol" : 7,
          "endCol" : 13,
          "path" : "<unknown>"
        },
        "columnList" : 139,
        "startLine" : 13,
        "endLine" : 13,
        "startCol" : 0,
        "endCol" : 13,
        "path" : "<unknown>"
      },
      "query" : 140,
      "internalId" : 1,
      "error" : false,
      "errorLine" : 0,
      "errorCol" : 0,
      "startLine" : 13,
      "endLine" : 13,
      "startCol" : 0,
      "endCol" : 13,
      "path" : "<unknown>"
    }, {
      "type" : "Select",
      "id" : 144,
      "_query" : {
        "type" : "SelectExpression",
        "id" : 143,
        "_columnList" : {
          "type" : "Literal",
          "id" : 142,
          "kind" : "DECIMAL",
          "value" : "3.4028235E38",
          "startLine" : 14,
          "endLine" : 14,
          "startCol" : 7,
          "endCol" : 18,
          "path" : "<unknown>"
        },
        "columnList" : 142,
        "startLine" : 14,
        "endLine" : 14,
        "startCol" : 0,
        "endCol" : 18,
        "path" : "<unknown>"
      },
      "query" : 143,
      "internalId" : 1,
      "error" : false,
      "errorLine" : 0,
      "errorCol" : 0,
      "startLine" : 14,
      "endLine" : 14,
      "startCol" : 0,
      "endCol" : 18,
      "path" : "<unknown>"
    }, {
      "type" : "Select",
      "id" : 147,
      "_query" : {
        "type" : "SelectExpression",
        "id" : 146,
        "_columnList" : {
          "type" : "Literal",
          "id" : 145,
          "kind" : "DECIMAL",
          "value" : "-1.4E-45",
          "startLine" : 15,
          "endLine" : 15,
          "startCol" : 8,
          "endCol" : 14,
          "path" : "<unknown>"
        },
        "columnList" : 145,
        "startLine" : 15,
        "endLine" : 15,
        "startCol" : 0,
        "endCol" : 14,
        "path" : "<unknown>"
      },
      "query" : 146,
      "internalId" : 1,
      "error" : false,
      "errorLine" : 0,
      "errorCol" : 0,
      "startLine" : 15,
      "endLine" : 15,
      "startCol" : 0,
      "endCol" : 14,
      "path" : "<unknown>"
    }, {
      "type" : "Select",
      "id" : 150,
      "_query" : {
        "type" : "SelectExpression",
        "id" : 149,
        "_columnList" : {
          "type" : "Literal",
          "id" : 148,
          "kind" : "DECIMAL",
          "value" : "-3.4028235E38",
          "startLine" : 16,
          "endLine" : 16,
          "startCol" : 8,
          "endCol" : 19,
          "path" : "<unknown>"
        },
        "columnList" : 148,
        "startLine" : 16,
        "endLine" : 16,
        "startCol" : 0,
        "endCol" : 19,
        "path" : "<unknown>"
      },
      "query" : 149,
      "internalId" : 1,
      "error" : false,
      "errorLine" : 0,
      "errorCol" : 0,
      "startLine" : 16,
      "endLine" : 16,
      "startCol" : 0,
      "endCol" : 19,
      "path" : "<unknown>"
    }, {
      "type" : "Select",
      "id" : 153,
      "_query" : {
        "type" : "SelectExpression",
        "id" : 152,
        "_columnList" : {
          "type" : "Literal",
          "id" : 151,
          "kind" : "DECIMAL",
          "value" : "4.9E-324",
          "startLine" : 17,
          "endLine" : 17,
          "startCol" : 7,
          "endCol" : 14,
          "path" : "<unknown>"
        },
        "columnList" : 151,
        "startLine" : 17,
        "endLine" : 17,
        "startCol" : 0,
        "endCol" : 14,
        "path" : "<unknown>"
      },
      "query" : 152,
      "internalId" : 1,
      "error" : false,
      "errorLine" : 0,
      "errorCol" : 0,
      "startLine" : 17,
      "endLine" : 17,
      "startCol" : 0,
      "endCol" : 14,
      "path" : "<unknown>"
    }, {
      "type" : "Select",
      "id" : 156,
      "_query" : {
        "type" : "SelectExpression",
        "id" : 155,
        "_columnList" : {
          "type" : "Literal",
          "id" : 154,
          "kind" : "DECIMAL",
          "value" : "1.7976931348623157E308",
          "startLine" : 18,
          "endLine" : 18,
          "startCol" : 7,
          "endCol" : 28,
          "path" : "<unknown>"
        },
        "columnList" : 154,
        "startLine" : 18,
        "endLine" : 18,
        "startCol" : 0,
        "endCol" : 28,
        "path" : "<unknown>"
      },
      "query" : 155,
      "internalId" : 1,
      "error" : false,
      "errorLine" : 0,
      "errorCol" : 0,
      "startLine" : 18,
      "endLine" : 18,
      "startCol" : 0,
      "endCol" : 28,
      "path" : "<unknown>"
    }, {
      "type" : "Select",
      "id" : 159,
      "_query" : {
        "type" : "SelectExpression",
        "id" : 158,
        "_columnList" : {
          "type" : "Literal",
          "id" : 157,
          "kind" : "DECIMAL",
          "value" : "-4.9E-324",
          "startLine" : 19,
          "endLine" : 19,
          "startCol" : 8,
          "endCol" : 15,
          "path" : "<unknown>"
        },
        "columnList" : 157,
        "startLine" : 19,
        "endLine" : 19,
        "startCol" : 0,
        "endCol" : 15,
        "path" : "<unknown>"
      },
      "query" : 158,
      "internalId" : 1,
      "error" : false,
      "errorLine" : 0,
      "errorCol" : 0,
      "startLine" : 19,
      "endLine" : 19,
      "startCol" : 0,
      "endCol" : 15,
      "path" : "<unknown>"
    }, {
      "type" : "Select",
      "id" : 162,
      "_query" : {
        "type" : "SelectExpression",
        "id" : 161,
        "_columnList" : {
          "type" : "Literal",
          "id" : 160,
          "kind" : "DECIMAL",
          "value" : "-1.7976931348623157E308",
          "startLine" : 20,
          "endLine" : 20,
          "startCol" : 8,
          "endCol" : 29,
          "path" : "<unknown>"
        },
        "columnList" : 160,
        "startLine" : 20,
        "endLine" : 20,
        "startCol" : 0,
        "endCol" : 29,
        "path" : "<unknown>"
      },
      "query" : 161,
      "internalId" : 1,
      "error" : false,
      "errorLine" : 0,
      "errorCol" : 0,
      "startLine" : 20,
      "endLine" : 20,
      "startCol" : 0,
      "endCol" : 29,
      "path" : "<unknown>"
    }, {
      "type" : "Select",
      "id" : 165,
      "_query" : {
        "type" : "SelectExpression",
        "id" : 164,
        "_columnList" : {
          "type" : "Literal",
          "id" : 163,
          "kind" : "DECIMAL",
          "value" : "4.9E-3241",
          "startLine" : 21,
          "endLine" : 21,
          "startCol" : 7,
          "endCol" : 15,
          "path" : "<unknown>"
        },
        "columnList" : 163,
        "startLine" : 21,
        "endLine" : 21,
        "startCol" : 0,
        "endCol" : 15,
        "path" : "<unknown>"
      },
      "query" : 164,
      "internalId" : 1,
      "error" : false,
      "errorLine" : 0,
      "errorCol" : 0,
      "startLine" : 21,
      "endLine" : 21,
      "startCol" : 0,
      "endCol" : 15,
      "path" : "<unknown>"
    }, {
      "type" : "Select",
      "id" : 168,
      "_query" : {
        "type" : "SelectExpression",
        "id" : 167,
        "_columnList" : {
          "type" : "Literal",
          "id" : 166,
          "kind" : "DECIMAL",
          "value" : "1.7976931348623157E3081",
          "startLine" : 22,
          "endLine" : 22,
          "startCol" : 7,
          "endCol" : 29,
          "path" : "<unknown>"
        },
        "columnList" : 166,
        "startLine" : 22,
        "endLine" : 22,
        "startCol" : 0,
        "endCol" : 29,
        "path" : "<unknown>"
      },
      "query" : 167,
      "internalId" : 1,
      "error" : false,
      "errorLine" : 0,
      "errorCol" : 0,
      "startLine" : 22,
      "endLine" : 22,
      "startCol" : 0,
      "endCol" : 29,
      "path" : "<unknown>"
    } ],
    "defaultSchema" : 102,
    "schemas" : [ 102 ],
    "types" : [ ],
    "name" : "DB",
    "startLine" : 0,
    "endLine" : 0,
    "startCol" : 0,
    "endCol" : 0
  },
  "databases" : [ 101 ],
  "defaultDatabase" : 101,
  "innerFunctions" : [ ],
  "startLine" : 0,
  "endLine" : 0,
  "startCol" : 0,
  "endCol" : 0
}