{
  "type" : "SQLRoot",
  "id" : 100,
  "_defaultDatabase" : {
    "type" : "Database",
    "id" : 101,
    "_defaultSchema" : {
      "type" : "Schema",
      "id" : 102,
      "views" : [ ],
      "functions" : [ ],
      "triggers" : [ ],
      "tables" : [ ],
      "name" : "SCH",
      "startLine" : 0,
      "endLine" : 0,
      "startCol" : 0,
      "endCol" : 0
    },
    "statements" : [ {
      "type" : "Update",
      "id" : 108,
      "_tableReferenceList" : {
        "type" : "Id",
        "id" : 103,
        "quoted" : false,
        "name" : "t",
        "startLine" : 1,
        "endLine" : 1,
        "startCol" : 7,
        "endCol" : 7,
        "path" : "../../src/resources/input/impala/update.sql"
      },
      "_setList" : {
        "type" : "ExpressionList",
        "id" : 107,
        "expressions" : [ {
          "type" : "KeyValue",
          "id" : 106,
          "_key" : {
            "type" : "Id",
            "id" : 104,
            "quoted" : false,
            "name" : "x",
            "startLine" : 1,
            "endLine" : 1,
            "startCol" : 13,
            "endCol" : 13,
            "path" : "../../src/resources/input/impala/update.sql"
          },
          "_value" : {
            "type" : "Literal",
            "id" : 105,
            "kind" : "INTEGER",
            "value" : "3",
            "startLine" : 1,
            "endLine" : 1,
            "startCol" : 17,
            "endCol" : 17,
            "path" : "../../src/resources/input/impala/update.sql"
          },
          "value" : 105,
          "key" : 104,
          "startLine" : 1,
          "endLine" : 1,
          "startCol" : 13,
          "endCol" : 17,
          "path" : "../../src/resources/input/impala/update.sql"
        } ],
        "startLine" : 1,
        "endLine" : 1,
        "startCol" : 13,
        "endCol" : 17,
        "path" : "../../src/resources/input/impala/update.sql"
      },
      "_where" : {
        "type" : "BinaryExpression",
        "id" : 111,
        "_left" : {
          "type" : "Id",
          "id" : 109,
          "quoted" : false,
          "name" : "a",
          "startLine" : 1,
          "endLine" : 1,
          "startCol" : 25,
          "endCol" : 25,
          "path" : "../../src/resources/input/impala/update.sql"
        },
        "_right" : {
          "type" : "Id",
          "id" : 110,
          "quoted" : false,
          "name" : "b",
          "startLine" : 1,
          "endLine" : 1,
          "startCol" : 29,
          "endCol" : 29,
          "path" : "../../src/resources/input/impala/update.sql"
        },
        "kind" : "LESSTHAN",
        "left" : 109,
        "right" : 110,
        "startLine" : 1,
        "endLine" : 1,
        "startCol" : 25,
        "endCol" : 29,
        "path" : "../../src/resources/input/impala/update.sql"
      },
      "tableReferenceList" : 103,
      "where" : 111,
      "setList" : 107,
      "internalId" : 0,
      "error" : false,
      "errorLine" : 0,
      "errorCol" : 0,
      "startLine" : 1,
      "endLine" : 1,
      "startCol" : 13,
      "endCol" : 7,
      "path" : "../../src/resources/input/impala/update.sql"
    }, {
      "type" : "Update",
      "id" : 123,
      "_tableReferenceList" : {
        "type" : "Id",
        "id" : 112,
        "quoted" : false,
        "name" : "t",
        "startLine" : 2,
        "endLine" : 2,
        "startCol" : 7,
        "endCol" : 7,
        "path" : "../../src/resources/input/impala/update.sql"
      },
      "_setList" : {
        "type" : "ExpressionList",
        "id" : 122,
        "expressions" : [ {
          "type" : "KeyValue",
          "id" : 121,
          "_key" : {
            "type" : "Id",
            "id" : 113,
            "quoted" : false,
            "name" : "x",
            "startLine" : 2,
            "endLine" : 2,
            "startCol" : 13,
            "endCol" : 13,
            "path" : "../../src/resources/input/impala/update.sql"
          },
          "_value" : {
            "type" : "BinaryExpression",
            "id" : 120,
            "_left" : {
              "type" : "Literal",
              "id" : 114,
              "kind" : "INTEGER",
              "value" : "3",
              "startLine" : 2,
              "endLine" : 2,
              "startCol" : 18,
              "endCol" : 18,
              "path" : "../../src/resources/input/impala/update.sql"
            },
            "_right" : {
              "type" : "UserFunctionCall",
              "id" : 116,
              "_expression" : {
                "type" : "Id",
                "id" : 115,
                "quoted" : false,
                "name" : "length",
                "startLine" : 2,
                "endLine" : 2,
                "startCol" : 22,
                "endCol" : 27,
                "path" : "../../src/resources/input/impala/update.sql"
              },
              "_paramList" : {
                "type" : "FunctionParams",
                "id" : 119,
                "_parameter" : {
                  "type" : "ExpressionList",
                  "id" : 118,
                  "expressions" : [ {
                    "type" : "Literal",
                    "id" : 117,
                    "kind" : "STRING",
                    "value" : "\"hallo\"",
                    "startLine" : 2,
                    "endLine" : 2,
                    "startCol" : 29,
                    "endCol" : 35,
                    "path" : "../../src/resources/input/impala/update.sql"
                  } ],
                  "startLine" : 2,
                  "endLine" : 2,
                  "startCol" : 29,
                  "endCol" : 35,
                  "path" : "../../src/resources/input/impala/update.sql"
                },
                "kind" : "NONE",
                "parameter" : 118,
                "startLine" : 2,
                "endLine" : 2,
                "startCol" : 29,
                "endCol" : 35,
                "path" : "../../src/resources/input/impala/update.sql"
              },
              "paramList" : 119,
              "expression" : 115,
              "startLine" : 2,
              "endLine" : 2,
              "startCol" : 22,
              "endCol" : 27,
              "path" : "../../src/resources/input/impala/update.sql"
            },
            "kind" : "PLUS",
            "left" : 114,
            "right" : 116,
            "startLine" : 2,
            "endLine" : 2,
            "startCol" : 18,
            "endCol" : 27,
            "path" : "../../src/resources/input/impala/update.sql"
          },
          "value" : 120,
          "key" : 113,
          "startLine" : 2,
          "endLine" : 2,
          "startCol" : 13,
          "endCol" : 27,
          "path" : "../../src/resources/input/impala/update.sql"
        } ],
        "startLine" : 2,
        "endLine" : 2,
        "startCol" : 13,
        "endCol" : 27,
        "path" : "../../src/resources/input/impala/update.sql"
      },
      "_where" : {
        "type" : "BinaryExpression",
        "id" : 126,
        "_left" : {
          "type" : "Id",
          "id" : 124,
          "quoted" : false,
          "name" : "a",
          "startLine" : 2,
          "endLine" : 2,
          "startCol" : 45,
          "endCol" : 45,
          "path" : "../../src/resources/input/impala/update.sql"
        },
        "_right" : {
          "type" : "Literal",
          "id" : 125,
          "kind" : "STRING",
          "value" : "'adasas'",
          "startLine" : 2,
          "endLine" : 2,
          "startCol" : 49,
          "endCol" : 56,
          "path" : "../../src/resources/input/impala/update.sql"
        },
        "kind" : "LESSTHAN",
        "left" : 124,
        "right" : 125,
        "startLine" : 2,
        "endLine" : 2,
        "startCol" : 45,
        "endCol" : 56,
        "path" : "../../src/resources/input/impala/update.sql"
      },
      "tableReferenceList" : 112,
      "where" : 126,
      "setList" : 122,
      "internalId" : 0,
      "error" : false,
      "errorLine" : 0,
      "errorCol" : 0,
      "startLine" : 2,
      "endLine" : 2,
      "startCol" : 13,
      "endCol" : 7,
      "path" : "../../src/resources/input/impala/update.sql"
    }, {
      "type" : "Update",
      "id" : 132,
      "_tableReferenceList" : {
        "type" : "Id",
        "id" : 127,
        "quoted" : false,
        "name" : "t",
        "startLine" : 3,
        "endLine" : 3,
        "startCol" : 7,
        "endCol" : 7,
        "path" : "../../src/resources/input/impala/update.sql"
      },
      "_setList" : {
        "type" : "ExpressionList",
        "id" : 131,
        "expressions" : [ {
          "type" : "KeyValue",
          "id" : 130,
          "_key" : {
            "type" : "Id",
            "id" : 128,
            "quoted" : false,
            "name" : "x",
            "startLine" : 3,
            "endLine" : 3,
            "startCol" : 13,
            "endCol" : 13,
            "path" : "../../src/resources/input/impala/update.sql"
          },
          "_value" : {
            "type" : "Literal",
            "id" : 129,
            "kind" : "INTEGER",
            "value" : "3",
            "startLine" : 3,
            "endLine" : 3,
            "startCol" : 17,
            "endCol" : 17,
            "path" : "../../src/resources/input/impala/update.sql"
          },
          "value" : 129,
          "key" : 128,
          "startLine" : 3,
          "endLine" : 3,
          "startCol" : 13,
          "endCol" : 17,
          "path" : "../../src/resources/input/impala/update.sql"
        } ],
        "startLine" : 3,
        "endLine" : 3,
        "startCol" : 13,
        "endCol" : 17,
        "path" : "../../src/resources/input/impala/update.sql"
      },
      "tableReferenceList" : 127,
      "setList" : 131,
      "internalId" : 0,
      "error" : false,
      "errorLine" : 0,
      "errorCol" : 0,
      "startLine" : 3,
      "endLine" : 3,
      "startCol" : 13,
      "endCol" : 7,
      "path" : "../../src/resources/input/impala/update.sql"
    }, {
      "type" : "Update",
      "id" : 141,
      "_tableReferenceList" : {
        "type" : "Id",
        "id" : 133,
        "quoted" : false,
        "name" : "t",
        "startLine" : 4,
        "endLine" : 4,
        "startCol" : 7,
        "endCol" : 7,
        "path" : "../../src/resources/input/impala/update.sql"
      },
      "_setList" : {
        "type" : "ExpressionList",
        "id" : 137,
        "expressions" : [ {
          "type" : "KeyValue",
          "id" : 136,
          "_key" : {
            "type" : "Id",
            "id" : 134,
            "quoted" : false,
            "name" : "x",
            "startLine" : 4,
            "endLine" : 4,
            "startCol" : 13,
            "endCol" : 13,
            "path" : "../../src/resources/input/impala/update.sql"
          },
          "_value" : {
            "type" : "Literal",
            "id" : 135,
            "kind" : "INTEGER",
            "value" : "3",
            "startLine" : 4,
            "endLine" : 4,
            "startCol" : 15,
            "endCol" : 15,
            "path" : "../../src/resources/input/impala/update.sql"
          },
          "value" : 135,
          "key" : 134,
          "startLine" : 4,
          "endLine" : 4,
          "startCol" : 13,
          "endCol" : 15,
          "path" : "../../src/resources/input/impala/update.sql"
        }, {
          "type" : "KeyValue",
          "id" : 140,
          "_key" : {
            "type" : "Id",
            "id" : 138,
            "quoted" : false,
            "name" : "x",
            "startLine" : 4,
            "endLine" : 4,
            "startCol" : 18,
            "endCol" : 18,
            "path" : "../../src/resources/input/impala/update.sql"
          },
          "_value" : {
            "type" : "Literal",
            "id" : 139,
            "kind" : "INTEGER",
            "value" : "4",
            "startLine" : 4,
            "endLine" : 4,
            "startCol" : 20,
            "endCol" : 20,
            "path" : "../../src/resources/input/impala/update.sql"
          },
          "value" : 139,
          "key" : 138,
          "startLine" : 4,
          "endLine" : 4,
          "startCol" : 18,
          "endCol" : 20,
          "path" : "../../src/resources/input/impala/update.sql"
        } ],
        "startLine" : 4,
        "endLine" : 4,
        "startCol" : 13,
        "endCol" : 20,
        "path" : "../../src/resources/input/impala/update.sql"
      },
      "_where" : {
        "type" : "BinaryExpression",
        "id" : 149,
        "_left" : {
          "type" : "Id",
          "id" : 147,
          "quoted" : false,
          "name" : "b",
          "startLine" : 4,
          "endLine" : 4,
          "startCol" : 39,
          "endCol" : 39,
          "path" : "../../src/resources/input/impala/update.sql"
        },
        "_right" : {
          "type" : "Literal",
          "id" : 148,
          "kind" : "DECIMAL",
          "value" : "10",
          "startLine" : 4,
          "endLine" : 4,
          "startCol" : 43,
          "endCol" : 44,
          "path" : "../../src/resources/input/impala/update.sql"
        },
        "kind" : "EQUALS",
        "left" : 147,
        "right" : 148,
        "startLine" : 4,
        "endLine" : 4,
        "startCol" : 39,
        "endCol" : 44,
        "path" : "../../src/resources/input/impala/update.sql"
      },
      "_from" : {
        "type" : "TableRef",
        "id" : 146,
        "_table" : {
          "type" : "BinaryExpression",
          "id" : 144,
          "_left" : {
            "type" : "Id",
            "id" : 142,
            "quoted" : false,
            "name" : "a",
            "startLine" : 4,
            "endLine" : 4,
            "startCol" : 27,
            "endCol" : 27,
            "path" : "../../src/resources/input/impala/update.sql"
          },
          "_right" : {
            "type" : "Id",
            "id" : 143,
            "quoted" : false,
            "name" : "b",
            "startLine" : 4,
            "endLine" : 4,
            "startCol" : 29,
            "endCol" : 29,
            "path" : "../../src/resources/input/impala/update.sql"
          },
          "kind" : "FIELDSELECTOR",
          "left" : 142,
          "right" : 143,
          "startLine" : 4,
          "endLine" : 4,
          "startCol" : 27,
          "endCol" : 29,
          "path" : "../../src/resources/input/impala/update.sql"
        },
        "table" : 144,
        "name" : "t",
        "startLine" : 4,
        "endLine" : 4,
        "startCol" : 27,
        "endCol" : 29,
        "path" : "../../src/resources/input/impala/update.sql"
      },
      "tableReferenceList" : 133,
      "where" : 149,
      "setList" : 137,
      "from" : 146,
      "internalId" : 0,
      "error" : false,
      "errorLine" : 0,
      "errorCol" : 0,
      "startLine" : 4,
      "endLine" : 4,
      "startCol" : 13,
      "endCol" : 7,
      "path" : "../../src/resources/input/impala/update.sql"
    }, {
      "type" : "ParserError",
      "id" : 151,
      "internalId" : 0,
      "errorMessage" : "mismatched input ';' expecting {KW_SET, '.'}",
      "error" : true,
      "errorLine" : 5,
      "errorCol" : 8,
      "startLine" : 5,
      "endLine" : 5,
      "startCol" : 8,
      "endCol" : 8,
      "path" : "../../src/resources/input/impala/update.sql"
    }, {
      "type" : "Update",
      "id" : 154,
      "_tableReferenceList" : {
        "type" : "Id",
        "id" : 152,
        "quoted" : false,
        "name" : "t",
        "startLine" : 6,
        "endLine" : 6,
        "startCol" : 7,
        "endCol" : 7,
        "path" : "../../src/resources/input/impala/update.sql"
      },
      "tableReferenceList" : 152,
      "internalId" : 0,
      "errorMessage" : "mismatched input '<' expecting {'.', '='}",
      "error" : true,
      "errorLine" : 6,
      "errorCol" : 15,
      "startLine" : 6,
      "endLine" : 6,
      "startCol" : 0,
      "endCol" : 7,
      "path" : "../../src/resources/input/impala/update.sql"
    }, {
      "type" : "Update",
      "id" : 157,
      "_tableReferenceList" : {
        "type" : "Id",
        "id" : 155,
        "quoted" : false,
        "name" : "t",
        "startLine" : 7,
        "endLine" : 7,
        "startCol" : 7,
        "endCol" : 7,
        "path" : "../../src/resources/input/impala/update.sql"
      },
      "tableReferenceList" : 155,
      "internalId" : 0,
      "errorMessage" : "mismatched input ';' expecting {'.', '='}",
      "error" : true,
      "errorLine" : 7,
      "errorCol" : 14,
      "startLine" : 7,
      "endLine" : 7,
      "startCol" : 0,
      "endCol" : 7,
      "path" : "../../src/resources/input/impala/update.sql"
    }, {
      "type" : "Update",
      "id" : 159,
      "_tableReferenceList" : {
        "type" : "Id",
        "id" : 158,
        "quoted" : false,
        "name" : "t",
        "startLine" : 8,
        "endLine" : 8,
        "startCol" : 7,
        "endCol" : 7,
        "path" : "../../src/resources/input/impala/update.sql"
      },
      "tableReferenceList" : 158,
      "internalId" : 0,
      "errorMessage" : "mismatched input '4' expecting {KW_DEFAULT, IDENT}",
      "error" : true,
      "errorLine" : 8,
      "errorCol" : 13,
      "startLine" : 8,
      "endLine" : 8,
      "startCol" : 0,
      "endCol" : 7,
      "path" : "../../src/resources/input/impala/update.sql"
    }, {
      "type" : "Update",
      "id" : 165,
      "_tableReferenceList" : {
        "type" : "Id",
        "id" : 160,
        "quoted" : false,
        "name" : "t",
        "startLine" : 9,
        "endLine" : 9,
        "startCol" : 12,
        "endCol" : 12,
        "path" : "../../src/resources/input/impala/update.sql"
      },
      "_setList" : {
        "type" : "ExpressionList",
        "id" : 164,
        "expressions" : [ {
          "type" : "KeyValue",
          "id" : 163,
          "_key" : {
            "type" : "Id",
            "id" : 161,
            "quoted" : false,
            "name" : "x",
            "startLine" : 9,
            "endLine" : 9,
            "startCol" : 18,
            "endCol" : 18,
            "path" : "../../src/resources/input/impala/update.sql"
          },
          "_value" : {
            "type" : "Literal",
            "id" : 162,
            "kind" : "INTEGER",
            "value" : "3",
            "startLine" : 9,
            "endLine" : 9,
            "startCol" : 22,
            "endCol" : 22,
            "path" : "../../src/resources/input/impala/update.sql"
          },
          "value" : 162,
          "key" : 161,
          "startLine" : 9,
          "endLine" : 9,
          "startCol" : 18,
          "endCol" : 22,
          "path" : "../../src/resources/input/impala/update.sql"
        } ],
        "startLine" : 9,
        "endLine" : 9,
        "startCol" : 18,
        "endCol" : 22,
        "path" : "../../src/resources/input/impala/update.sql"
      },
      "tableReferenceList" : 160,
      "setList" : 164,
      "internalId" : 0,
      "error" : false,
      "errorLine" : 0,
      "errorCol" : 0,
      "startLine" : 9,
      "endLine" : 9,
      "startCol" : 18,
      "endCol" : 12,
      "path" : "../../src/resources/input/impala/update.sql"
    }, {
      "type" : "ParserError",
      "id" : 167,
      "internalId" : 0,
      "errorMessage" : "mismatched input 'where' expecting {KW_SET, '.'}",
      "error" : true,
      "errorLine" : 10,
      "errorCol" : 9,
      "startLine" : 10,
      "endLine" : 10,
      "startCol" : 20,
      "endCol" : 20,
      "path" : "../../src/resources/input/impala/update.sql"
    }, {
      "type" : "Update",
      "id" : 173,
      "_tableReferenceList" : {
        "type" : "Id",
        "id" : 168,
        "quoted" : false,
        "name" : "t",
        "startLine" : 11,
        "endLine" : 11,
        "startCol" : 7,
        "endCol" : 7,
        "path" : "../../src/resources/input/impala/update.sql"
      },
      "_setList" : {
        "type" : "ExpressionList",
        "id" : 172,
        "expressions" : [ {
          "type" : "KeyValue",
          "id" : 171,
          "_key" : {
            "type" : "Id",
            "id" : 169,
            "quoted" : false,
            "name" : "a",
            "startLine" : 11,
            "endLine" : 11,
            "startCol" : 15,
            "endCol" : 15,
            "path" : "../../src/resources/input/impala/update.sql"
          },
          "_value" : {
            "type" : "Literal",
            "id" : 170,
            "kind" : "DECIMAL",
            "value" : "10",
            "startLine" : 11,
            "endLine" : 11,
            "startCol" : 19,
            "endCol" : 20,
            "path" : "../../src/resources/input/impala/update.sql"
          },
          "value" : 170,
          "key" : 169,
          "startLine" : 11,
          "endLine" : 11,
          "startCol" : 15,
          "endCol" : 20,
          "path" : "../../src/resources/input/impala/update.sql"
        } ],
        "startLine" : 11,
        "endLine" : 11,
        "startCol" : 15,
        "endCol" : 20,
        "path" : "../../src/resources/input/impala/update.sql"
      },
      "_where" : {
        "type" : "BinaryExpression",
        "id" : 176,
        "_left" : {
          "type" : "Id",
          "id" : 174,
          "quoted" : false,
          "name" : "x",
          "startLine" : 11,
          "endLine" : 11,
          "startCol" : 29,
          "endCol" : 29,
          "path" : "../../src/resources/input/impala/update.sql"
        },
        "_right" : {
          "type" : "Literal",
          "id" : 175,
          "kind" : "INTEGER",
          "value" : "4",
          "startLine" : 11,
          "endLine" : 11,
          "startCol" : 33,
          "endCol" : 33,
          "path" : "../../src/resources/input/impala/update.sql"
        },
        "kind" : "EQUALS",
        "left" : 174,
        "right" : 175,
        "startLine" : 11,
        "endLine" : 11,
        "startCol" : 29,
        "endCol" : 33,
        "path" : "../../src/resources/input/impala/update.sql"
      },
      "tableReferenceList" : 168,
      "where" : 176,
      "setList" : 172,
      "internalId" : 0,
      "error" : false,
      "errorLine" : 0,
      "errorCol" : 0,
      "startLine" : 11,
      "endLine" : 11,
      "startCol" : 15,
      "endCol" : 7,
      "path" : "../../src/resources/input/impala/update.sql"
    }, {
      "type" : "Update",
      "id" : 179,
      "_tableReferenceList" : {
        "type" : "Id",
        "id" : 177,
        "quoted" : false,
        "name" : "t",
        "startLine" : 12,
        "endLine" : 12,
        "startCol" : 7,
        "endCol" : 7,
        "path" : "../../src/resources/input/impala/update.sql"
      },
      "tableReferenceList" : 177,
      "internalId" : 0,
      "errorMessage" : "mismatched input 'from' expecting {KW_SET, '.'}",
      "error" : true,
      "errorLine" : 12,
      "errorCol" : 11,
      "startLine" : 12,
      "endLine" : 12,
      "startCol" : 0,
      "endCol" : 7,
      "path" : "../../src/resources/input/impala/update.sql"
    }, {
      "type" : "ParserError",
      "id" : 180,
      "internalId" : 0,
      "errorMessage" : "mismatched input '(' expecting {KW_DEFAULT, IDENT}",
      "error" : true,
      "errorLine" : 13,
      "errorCol" : 7,
      "startLine" : 13,
      "endLine" : 13,
      "startCol" : 64,
      "endCol" : 64,
      "path" : "../../src/resources/input/impala/update.sql"
    } ],
    "defaultSchema" : 102,
    "schemas" : [ 102 ],
    "types" : [ ],
    "name" : "DB",
    "startLine" : 0,
    "endLine" : 0,
    "startCol" : 0,
    "endCol" : 0
  },
  "databases" : [ 101 ],
  "defaultDatabase" : 101,
  "innerFunctions" : [ ],
  "startLine" : 0,
  "endLine" : 0,
  "startCol" : 0,
  "endCol" : 0
}