{
  "type" : "SQLRoot",
  "id" : 100,
  "_defaultDatabase" : {
    "type" : "Database",
    "id" : 101,
    "_defaultSchema" : {
      "type" : "Schema",
      "id" : 102,
      "views" : [ ],
      "functions" : [ ],
      "triggers" : [ ],
      "tables" : [ ],
      "name" : "SCH",
      "startLine" : 0,
      "endLine" : 0,
      "startCol" : 0,
      "endCol" : 0
    },
    "statements" : [ {
      "type" : "Select",
      "id" : 110,
      "_query" : {
        "type" : "SelectExpression",
        "id" : 105,
        "_columnList" : {
          "type" : "ExpressionList",
          "id" : 104,
          "expressions" : [ {
            "type" : "Id",
            "id" : 103,
            "quoted" : false,
            "name" : "column_list",
            "startLine" : 2,
            "endLine" : 2,
            "startCol" : 1,
            "endCol" : 11,
            "path" : "../../src/resources/input/sqlite/sqlitetutorial_like.sql"
          } ],
          "startLine" : 2,
          "endLine" : 2,
          "startCol" : 1,
          "endCol" : 11,
          "path" : "../../src/resources/input/sqlite/sqlitetutorial_like.sql"
        },
        "_from" : {
          "type" : "Id",
          "id" : 106,
          "quoted" : false,
          "name" : "table_name",
          "startLine" : 4,
          "endLine" : 4,
          "startCol" : 1,
          "endCol" : 10,
          "path" : "../../src/resources/input/sqlite/sqlitetutorial_like.sql"
        },
        "_where" : {
          "type" : "BinaryExpression",
          "id" : 109,
          "_left" : {
            "type" : "Id",
            "id" : 107,
            "quoted" : false,
            "name" : "column_1",
            "startLine" : 6,
            "endLine" : 6,
            "startCol" : 1,
            "endCol" : 8,
            "path" : "../../src/resources/input/sqlite/sqlitetutorial_like.sql"
          },
          "_right" : {
            "type" : "Id",
            "id" : 108,
            "quoted" : false,
            "name" : "pattern",
            "startLine" : 6,
            "endLine" : 6,
            "startCol" : 15,
            "endCol" : 21,
            "path" : "../../src/resources/input/sqlite/sqlitetutorial_like.sql"
          },
          "kind" : "LIKE",
          "left" : 107,
          "right" : 108,
          "startLine" : 6,
          "endLine" : 6,
          "startCol" : 1,
          "endCol" : 21,
          "path" : "../../src/resources/input/sqlite/sqlitetutorial_like.sql"
        },
        "columnList" : 104,
        "where" : 109,
        "from" : 106,
        "startLine" : 1,
        "endLine" : 6,
        "startCol" : 0,
        "endCol" : 21,
        "path" : "../../src/resources/input/sqlite/sqlitetutorial_like.sql"
      },
      "query" : 105,
      "internalId" : 0,
      "error" : false,
      "errorLine" : 0,
      "errorCol" : 0,
      "startLine" : 1,
      "endLine" : 6,
      "startCol" : 0,
      "endCol" : 21,
      "path" : "../../src/resources/input/sqlite/sqlitetutorial_like.sql"
    }, {
      "type" : "Select",
      "id" : 119,
      "_query" : {
        "type" : "SelectExpression",
        "id" : 114,
        "_columnList" : {
          "type" : "ExpressionList",
          "id" : 112,
          "expressions" : [ {
            "type" : "Id",
            "id" : 111,
            "quoted" : false,
            "name" : "trackid",
            "startLine" : 8,
            "endLine" : 8,
            "startCol" : 1,
            "endCol" : 7,
            "path" : "../../src/resources/input/sqlite/sqlitetutorial_like.sql"
          }, {
            "type" : "Id",
            "id" : 113,
            "quoted" : false,
            "name" : "name",
            "startLine" : 9,
            "endLine" : 9,
            "startCol" : 1,
            "endCol" : 4,
            "path" : "../../src/resources/input/sqlite/sqlitetutorial_like.sql"
          } ],
          "startLine" : 8,
          "endLine" : 9,
          "startCol" : 1,
          "endCol" : 4,
          "path" : "../../src/resources/input/sqlite/sqlitetutorial_like.sql"
        },
        "_from" : {
          "type" : "Id",
          "id" : 115,
          "quoted" : false,
          "name" : "tracks",
          "startLine" : 11,
          "endLine" : 11,
          "startCol" : 1,
          "endCol" : 6,
          "path" : "../../src/resources/input/sqlite/sqlitetutorial_like.sql"
        },
        "_where" : {
          "type" : "BinaryExpression",
          "id" : 118,
          "_left" : {
            "type" : "Id",
            "id" : 116,
            "quoted" : false,
            "name" : "name",
            "startLine" : 13,
            "endLine" : 13,
            "startCol" : 1,
            "endCol" : 4,
            "path" : "../../src/resources/input/sqlite/sqlitetutorial_like.sql"
          },
          "_right" : {
            "type" : "Literal",
            "id" : 117,
            "kind" : "STRING",
            "value" : "'Wild%'",
            "startLine" : 13,
            "endLine" : 13,
            "startCol" : 11,
            "endCol" : 17,
            "path" : "../../src/resources/input/sqlite/sqlitetutorial_like.sql"
          },
          "kind" : "LIKE",
          "left" : 116,
          "right" : 117,
          "startLine" : 13,
          "endLine" : 13,
          "startCol" : 1,
          "endCol" : 17,
          "path" : "../../src/resources/input/sqlite/sqlitetutorial_like.sql"
        },
        "columnList" : 112,
        "where" : 118,
        "from" : 115,
        "startLine" : 7,
        "endLine" : 13,
        "startCol" : 0,
        "endCol" : 17,
        "path" : "../../src/resources/input/sqlite/sqlitetutorial_like.sql"
      },
      "query" : 114,
      "internalId" : 0,
      "error" : false,
      "errorLine" : 0,
      "errorCol" : 0,
      "startLine" : 7,
      "endLine" : 13,
      "startCol" : 0,
      "endCol" : 17,
      "path" : "../../src/resources/input/sqlite/sqlitetutorial_like.sql"
    }, {
      "type" : "Select",
      "id" : 128,
      "_query" : {
        "type" : "SelectExpression",
        "id" : 123,
        "_columnList" : {
          "type" : "ExpressionList",
          "id" : 121,
          "expressions" : [ {
            "type" : "Id",
            "id" : 120,
            "quoted" : false,
            "name" : "trackid",
            "startLine" : 15,
            "endLine" : 15,
            "startCol" : 1,
            "endCol" : 7,
            "path" : "../../src/resources/input/sqlite/sqlitetutorial_like.sql"
          }, {
            "type" : "Id",
            "id" : 122,
            "quoted" : false,
            "name" : "name",
            "startLine" : 16,
            "endLine" : 16,
            "startCol" : 1,
            "endCol" : 4,
            "path" : "../../src/resources/input/sqlite/sqlitetutorial_like.sql"
          } ],
          "startLine" : 15,
          "endLine" : 16,
          "startCol" : 1,
          "endCol" : 4,
          "path" : "../../src/resources/input/sqlite/sqlitetutorial_like.sql"
        },
        "_from" : {
          "type" : "Id",
          "id" : 124,
          "quoted" : false,
          "name" : "tracks",
          "startLine" : 18,
          "endLine" : 18,
          "startCol" : 1,
          "endCol" : 6,
          "path" : "../../src/resources/input/sqlite/sqlitetutorial_like.sql"
        },
        "_where" : {
          "type" : "BinaryExpression",
          "id" : 127,
          "_left" : {
            "type" : "Id",
            "id" : 125,
            "quoted" : false,
            "name" : "name",
            "startLine" : 20,
            "endLine" : 20,
            "startCol" : 1,
            "endCol" : 4,
            "path" : "../../src/resources/input/sqlite/sqlitetutorial_like.sql"
          },
          "_right" : {
            "type" : "Literal",
            "id" : 126,
            "kind" : "STRING",
            "value" : "'%Wild'",
            "startLine" : 20,
            "endLine" : 20,
            "startCol" : 11,
            "endCol" : 17,
            "path" : "../../src/resources/input/sqlite/sqlitetutorial_like.sql"
          },
          "kind" : "LIKE",
          "left" : 125,
          "right" : 126,
          "startLine" : 20,
          "endLine" : 20,
          "startCol" : 1,
          "endCol" : 17,
          "path" : "../../src/resources/input/sqlite/sqlitetutorial_like.sql"
        },
        "columnList" : 121,
        "where" : 127,
        "from" : 124,
        "startLine" : 14,
        "endLine" : 20,
        "startCol" : 0,
        "endCol" : 17,
        "path" : "../../src/resources/input/sqlite/sqlitetutorial_like.sql"
      },
      "query" : 123,
      "internalId" : 0,
      "error" : false,
      "errorLine" : 0,
      "errorCol" : 0,
      "startLine" : 14,
      "endLine" : 20,
      "startCol" : 0,
      "endCol" : 17,
      "path" : "../../src/resources/input/sqlite/sqlitetutorial_like.sql"
    }, {
      "type" : "Select",
      "id" : 137,
      "_query" : {
        "type" : "SelectExpression",
        "id" : 132,
        "_columnList" : {
          "type" : "ExpressionList",
          "id" : 130,
          "expressions" : [ {
            "type" : "Id",
            "id" : 129,
            "quoted" : false,
            "name" : "trackid",
            "startLine" : 22,
            "endLine" : 22,
            "startCol" : 1,
            "endCol" : 7,
            "path" : "../../src/resources/input/sqlite/sqlitetutorial_like.sql"
          }, {
            "type" : "Id",
            "id" : 131,
            "quoted" : false,
            "name" : "name",
            "startLine" : 23,
            "endLine" : 23,
            "startCol" : 1,
            "endCol" : 4,
            "path" : "../../src/resources/input/sqlite/sqlitetutorial_like.sql"
          } ],
          "startLine" : 22,
          "endLine" : 23,
          "startCol" : 1,
          "endCol" : 4,
          "path" : "../../src/resources/input/sqlite/sqlitetutorial_like.sql"
        },
        "_from" : {
          "type" : "Id",
          "id" : 133,
          "quoted" : false,
          "name" : "tracks",
          "startLine" : 25,
          "endLine" : 25,
          "startCol" : 1,
          "endCol" : 6,
          "path" : "../../src/resources/input/sqlite/sqlitetutorial_like.sql"
        },
        "_where" : {
          "type" : "BinaryExpression",
          "id" : 136,
          "_left" : {
            "type" : "Id",
            "id" : 134,
            "quoted" : false,
            "name" : "name",
            "startLine" : 27,
            "endLine" : 27,
            "startCol" : 1,
            "endCol" : 4,
            "path" : "../../src/resources/input/sqlite/sqlitetutorial_like.sql"
          },
          "_right" : {
            "type" : "Literal",
            "id" : 135,
            "kind" : "STRING",
            "value" : "'%Wild%'",
            "startLine" : 27,
            "endLine" : 27,
            "startCol" : 11,
            "endCol" : 18,
            "path" : "../../src/resources/input/sqlite/sqlitetutorial_like.sql"
          },
          "kind" : "LIKE",
          "left" : 134,
          "right" : 135,
          "startLine" : 27,
          "endLine" : 27,
          "startCol" : 1,
          "endCol" : 18,
          "path" : "../../src/resources/input/sqlite/sqlitetutorial_like.sql"
        },
        "columnList" : 130,
        "where" : 136,
        "from" : 133,
        "startLine" : 21,
        "endLine" : 27,
        "startCol" : 0,
        "endCol" : 18,
        "path" : "../../src/resources/input/sqlite/sqlitetutorial_like.sql"
      },
      "query" : 132,
      "internalId" : 0,
      "error" : false,
      "errorLine" : 0,
      "errorCol" : 0,
      "startLine" : 21,
      "endLine" : 27,
      "startCol" : 0,
      "endCol" : 18,
      "path" : "../../src/resources/input/sqlite/sqlitetutorial_like.sql"
    }, {
      "type" : "Select",
      "id" : 146,
      "_query" : {
        "type" : "SelectExpression",
        "id" : 141,
        "_columnList" : {
          "type" : "ExpressionList",
          "id" : 139,
          "expressions" : [ {
            "type" : "Id",
            "id" : 138,
            "quoted" : false,
            "name" : "trackid",
            "startLine" : 29,
            "endLine" : 29,
            "startCol" : 1,
            "endCol" : 7,
            "path" : "../../src/resources/input/sqlite/sqlitetutorial_like.sql"
          }, {
            "type" : "Id",
            "id" : 140,
            "quoted" : false,
            "name" : "name",
            "startLine" : 30,
            "endLine" : 30,
            "startCol" : 1,
            "endCol" : 4,
            "path" : "../../src/resources/input/sqlite/sqlitetutorial_like.sql"
          } ],
          "startLine" : 29,
          "endLine" : 30,
          "startCol" : 1,
          "endCol" : 4,
          "path" : "../../src/resources/input/sqlite/sqlitetutorial_like.sql"
        },
        "_from" : {
          "type" : "Id",
          "id" : 142,
          "quoted" : false,
          "name" : "tracks",
          "startLine" : 32,
          "endLine" : 32,
          "startCol" : 1,
          "endCol" : 6,
          "path" : "../../src/resources/input/sqlite/sqlitetutorial_like.sql"
        },
        "_where" : {
          "type" : "BinaryExpression",
          "id" : 145,
          "_left" : {
            "type" : "Id",
            "id" : 143,
            "quoted" : false,
            "name" : "name",
            "startLine" : 34,
            "endLine" : 34,
            "startCol" : 1,
            "endCol" : 4,
            "path" : "../../src/resources/input/sqlite/sqlitetutorial_like.sql"
          },
          "_right" : {
            "type" : "Literal",
            "id" : 144,
            "kind" : "STRING",
            "value" : "'%Br_wn%'",
            "startLine" : 34,
            "endLine" : 34,
            "startCol" : 11,
            "endCol" : 19,
            "path" : "../../src/resources/input/sqlite/sqlitetutorial_like.sql"
          },
          "kind" : "LIKE",
          "left" : 143,
          "right" : 144,
          "startLine" : 34,
          "endLine" : 34,
          "startCol" : 1,
          "endCol" : 19,
          "path" : "../../src/resources/input/sqlite/sqlitetutorial_like.sql"
        },
        "columnList" : 139,
        "where" : 145,
        "from" : 142,
        "startLine" : 28,
        "endLine" : 34,
        "startCol" : 0,
        "endCol" : 19,
        "path" : "../../src/resources/input/sqlite/sqlitetutorial_like.sql"
      },
      "query" : 141,
      "internalId" : 0,
      "error" : false,
      "errorLine" : 0,
      "errorCol" : 0,
      "startLine" : 28,
      "endLine" : 34,
      "startCol" : 0,
      "endCol" : 19,
      "path" : "../../src/resources/input/sqlite/sqlitetutorial_like.sql"
    } ],
    "defaultSchema" : 102,
    "schemas" : [ 102 ],
    "types" : [ ],
    "name" : "DB",
    "startLine" : 0,
    "endLine" : 0,
    "startCol" : 0,
    "endCol" : 0
  },
  "databases" : [ 101 ],
  "defaultDatabase" : 101,
  "innerFunctions" : [ ],
  "startLine" : 0,
  "endLine" : 0,
  "startCol" : 0,
  "endCol" : 0
}