{
  "type" : "SQLRoot",
  "id" : 100,
  "_defaultDatabase" : {
    "type" : "Database",
    "id" : 101,
    "_defaultSchema" : {
      "type" : "Schema",
      "id" : 102,
      "views" : [ ],
      "functions" : [ ],
      "triggers" : [ ],
      "tables" : [ {
        "type" : "Table",
        "id" : 105,
        "temporary" : false,
        "external" : false,
        "columns" : [ {
          "type" : "Column",
          "id" : 110,
          "_type" : {
            "type" : "NumericType",
            "id" : 108,
            "kind" : "INT",
            "precision" : 0,
            "scale" : 0,
            "unsigned" : false,
            "zerofill" : false,
            "startLine" : 0,
            "endLine" : 0,
            "startCol" : 0,
            "endCol" : 0
          },
          "type" : 108,
          "attributes" : [ {
            "type" : "ColumnAttribute",
            "id" : 109,
            "kind" : "PRIMARYKEY",
            "startLine" : 0,
            "endLine" : 0,
            "startCol" : 0,
            "endCol" : 0
          } ],
          "name" : "country_id",
          "startLine" : 0,
          "endLine" : 0,
          "startCol" : 0,
          "endCol" : 0
        }, {
          "type" : "Column",
          "id" : 115,
          "_type" : {
            "type" : "NumericType",
            "id" : 113,
            "kind" : "NUMERIC",
            "precision" : 0,
            "scale" : 0,
            "unsigned" : false,
            "zerofill" : false,
            "startLine" : 0,
            "endLine" : 0,
            "startCol" : 0,
            "endCol" : 0
          },
          "type" : 113,
          "attributes" : [ {
            "type" : "ColumnAttribute",
            "id" : 114,
            "kind" : "NOTNULL",
            "startLine" : 0,
            "endLine" : 0,
            "startCol" : 0,
            "endCol" : 0
          } ],
          "name" : "name",
          "startLine" : 0,
          "endLine" : 0,
          "startCol" : 0,
          "endCol" : 0
        } ],
        "uniqueKeys" : [ ],
        "foreignKeys" : [ ],
        "name" : "countries",
        "startLine" : 0,
        "endLine" : 0,
        "startCol" : 0,
        "endCol" : 0
      }, {
        "type" : "Table",
        "id" : 118,
        "temporary" : false,
        "external" : false,
        "columns" : [ {
          "type" : "Column",
          "id" : 121,
          "_type" : 113,
          "type" : 113,
          "attributes" : [ ],
          "name" : "language_id",
          "startLine" : 0,
          "endLine" : 0,
          "startCol" : 0,
          "endCol" : 0
        }, {
          "type" : "Column",
          "id" : 125,
          "_type" : 113,
          "type" : 113,
          "attributes" : [ {
            "type" : "ColumnAttribute",
            "id" : 124,
            "kind" : "NOTNULL",
            "startLine" : 0,
            "endLine" : 0,
            "startCol" : 0,
            "endCol" : 0
          } ],
          "name" : "name",
          "startLine" : 0,
          "endLine" : 0,
          "startCol" : 0,
          "endCol" : 0
        } ],
        "uniqueKeys" : [ ],
        "foreignKeys" : [ ],
        "name" : "languages",
        "startLine" : 0,
        "endLine" : 0,
        "startCol" : 0,
        "endCol" : 0
      }, {
        "type" : "Table",
        "id" : 129,
        "temporary" : false,
        "external" : false,
        "columns" : [ {
          "type" : "Column",
          "id" : 133,
          "_type" : 113,
          "type" : 113,
          "attributes" : [ {
            "type" : "ColumnAttribute",
            "id" : 132,
            "kind" : "NOTNULL",
            "startLine" : 0,
            "endLine" : 0,
            "startCol" : 0,
            "endCol" : 0
          } ],
          "name" : "country_id",
          "startLine" : 0,
          "endLine" : 0,
          "startCol" : 0,
          "endCol" : 0
        }, {
          "type" : "Column",
          "id" : 137,
          "_type" : 113,
          "type" : 113,
          "attributes" : [ {
            "type" : "ColumnAttribute",
            "id" : 136,
            "kind" : "NOTNULL",
            "startLine" : 0,
            "endLine" : 0,
            "startCol" : 0,
            "endCol" : 0
          } ],
          "name" : "language_id",
          "startLine" : 0,
          "endLine" : 0,
          "startCol" : 0,
          "endCol" : 0
        } ],
        "uniqueKeys" : [ ],
        "foreignKeys" : [ ],
        "name" : "country_languages",
        "startLine" : 0,
        "endLine" : 0,
        "startCol" : 0,
        "endCol" : 0
      }, {
        "type" : "Table",
        "id" : 148,
        "temporary" : false,
        "external" : false,
        "columns" : [ {
          "type" : "Column",
          "id" : 152,
          "_type" : 108,
          "type" : 108,
          "attributes" : [ {
            "type" : "ColumnAttribute",
            "id" : 151,
            "kind" : "NOTNULL",
            "startLine" : 0,
            "endLine" : 0,
            "startCol" : 0,
            "endCol" : 0
          } ],
          "name" : "id",
          "startLine" : 0,
          "endLine" : 0,
          "startCol" : 0,
          "endCol" : 0
        }, {
          "type" : "Column",
          "id" : 156,
          "_type" : 113,
          "type" : 113,
          "attributes" : [ {
            "type" : "ColumnAttribute",
            "id" : 155,
            "kind" : "NOTNULL",
            "startLine" : 0,
            "endLine" : 0,
            "startCol" : 0,
            "endCol" : 0
          } ],
          "name" : "name",
          "startLine" : 0,
          "endLine" : 0,
          "startCol" : 0,
          "endCol" : 0
        } ],
        "uniqueKeys" : [ ],
        "foreignKeys" : [ ],
        "name" : "cities",
        "startLine" : 0,
        "endLine" : 0,
        "startCol" : 0,
        "endCol" : 0
      } ],
      "name" : "SCH",
      "startLine" : 0,
      "endLine" : 0,
      "startCol" : 0,
      "endCol" : 0
    },
    "statements" : [ {
      "type" : "CreateTable",
      "id" : 104,
      "_table" : {
        "type" : "Id",
        "id" : 103,
        "_refersTo" : 105,
        "quoted" : false,
        "refersTo" : 105,
        "name" : "countries",
        "startLine" : 1,
        "endLine" : 1,
        "startCol" : 13,
        "endCol" : 21,
        "path" : "../../src/resources/input/sqlite/sqlitetutorial_prikey.sql"
      },
      "_schemaTable" : 105,
      "schemaTable" : 105,
      "ifNotExists" : false,
      "table" : 103,
      "internalId" : 0,
      "error" : false,
      "errorLine" : 0,
      "errorCol" : 0,
      "startLine" : 1,
      "endLine" : 1,
      "startCol" : 0,
      "endCol" : 5,
      "path" : "../../src/resources/input/sqlite/sqlitetutorial_prikey.sql"
    }, {
      "type" : "CreateTable",
      "id" : 117,
      "_table" : {
        "type" : "Id",
        "id" : 116,
        "_refersTo" : 118,
        "quoted" : false,
        "refersTo" : 118,
        "name" : "languages",
        "startLine" : 5,
        "endLine" : 5,
        "startCol" : 13,
        "endCol" : 21,
        "path" : "../../src/resources/input/sqlite/sqlitetutorial_prikey.sql"
      },
      "_schemaTable" : 118,
      "schemaTable" : 118,
      "ifNotExists" : false,
      "table" : 116,
      "internalId" : 0,
      "error" : false,
      "errorLine" : 0,
      "errorCol" : 0,
      "startLine" : 5,
      "endLine" : 5,
      "startCol" : 0,
      "endCol" : 5,
      "path" : "../../src/resources/input/sqlite/sqlitetutorial_prikey.sql"
    }, {
      "type" : "CreateTable",
      "id" : 128,
      "_table" : {
        "type" : "Id",
        "id" : 127,
        "_refersTo" : 129,
        "quoted" : false,
        "refersTo" : 129,
        "name" : "country_languages",
        "startLine" : 10,
        "endLine" : 10,
        "startCol" : 13,
        "endCol" : 29,
        "path" : "../../src/resources/input/sqlite/sqlitetutorial_prikey.sql"
      },
      "_schemaTable" : 129,
      "schemaTable" : 129,
      "ifNotExists" : false,
      "table" : 127,
      "internalId" : 0,
      "error" : false,
      "errorLine" : 0,
      "errorCol" : 0,
      "startLine" : 10,
      "endLine" : 10,
      "startCol" : 0,
      "endCol" : 5,
      "path" : "../../src/resources/input/sqlite/sqlitetutorial_prikey.sql"
    }, {
      "type" : "CreateTable",
      "id" : 147,
      "_table" : {
        "type" : "Id",
        "id" : 146,
        "_refersTo" : 148,
        "quoted" : false,
        "refersTo" : 148,
        "name" : "cities",
        "startLine" : 19,
        "endLine" : 19,
        "startCol" : 13,
        "endCol" : 18,
        "path" : "../../src/resources/input/sqlite/sqlitetutorial_prikey.sql"
      },
      "_schemaTable" : 148,
      "schemaTable" : 148,
      "ifNotExists" : false,
      "table" : 146,
      "internalId" : 0,
      "error" : false,
      "errorLine" : 0,
      "errorCol" : 0,
      "startLine" : 19,
      "endLine" : 19,
      "startCol" : 0,
      "endCol" : 5,
      "path" : "../../src/resources/input/sqlite/sqlitetutorial_prikey.sql"
    }, {
      "type" : "Insert",
      "id" : 158,
      "_columnList" : {
        "type" : "ExpressionList",
        "id" : 160,
        "expressions" : [ {
          "type" : "Id",
          "id" : 159,
          "_refersTo" : 152,
          "quoted" : false,
          "refersTo" : 152,
          "name" : "id",
          "startLine" : 24,
          "endLine" : 24,
          "startCol" : 20,
          "endCol" : 21,
          "path" : "../../src/resources/input/sqlite/sqlitetutorial_prikey.sql"
        }, {
          "type" : "Id",
          "id" : 161,
          "_refersTo" : 156,
          "quoted" : false,
          "refersTo" : 156,
          "name" : "name",
          "startLine" : 24,
          "endLine" : 24,
          "startCol" : 24,
          "endCol" : 27,
          "path" : "../../src/resources/input/sqlite/sqlitetutorial_prikey.sql"
        } ],
        "startLine" : 24,
        "endLine" : 24,
        "startCol" : 20,
        "endCol" : 27,
        "path" : "../../src/resources/input/sqlite/sqlitetutorial_prikey.sql"
      },
      "_table" : {
        "type" : "Id",
        "id" : 157,
        "_refersTo" : 148,
        "quoted" : false,
        "refersTo" : 148,
        "name" : "cities",
        "startLine" : 24,
        "endLine" : 24,
        "startCol" : 12,
        "endCol" : 17,
        "path" : "../../src/resources/input/sqlite/sqlitetutorial_prikey.sql"
      },
      "_query" : {
        "type" : "Values",
        "id" : 165,
        "_list" : {
          "type" : "ExpressionList",
          "id" : 163,
          "expressions" : [ {
            "type" : "Literal",
            "id" : 162,
            "kind" : "INTEGER",
            "value" : "1",
            "startLine" : 26,
            "endLine" : 26,
            "startCol" : 2,
            "endCol" : 2,
            "path" : "../../src/resources/input/sqlite/sqlitetutorial_prikey.sql"
          }, {
            "type" : "Literal",
            "id" : 164,
            "kind" : "STRING",
            "value" : "'San Jose'",
            "startLine" : 26,
            "endLine" : 26,
            "startCol" : 5,
            "endCol" : 14,
            "path" : "../../src/resources/input/sqlite/sqlitetutorial_prikey.sql"
          } ],
          "startLine" : 26,
          "endLine" : 26,
          "startCol" : 2,
          "endCol" : 14,
          "path" : "../../src/resources/input/sqlite/sqlitetutorial_prikey.sql"
        },
        "list" : 163,
        "startLine" : 25,
        "endLine" : 25,
        "startCol" : 0,
        "endCol" : 5,
        "path" : "../../src/resources/input/sqlite/sqlitetutorial_prikey.sql"
      },
      "columnList" : 160,
      "overwrite" : false,
      "table" : 157,
      "query" : 165,
      "internalId" : 0,
      "error" : false,
      "errorLine" : 0,
      "errorCol" : 0,
      "startLine" : 24,
      "endLine" : 25,
      "startCol" : 0,
      "endCol" : 5,
      "path" : "../../src/resources/input/sqlite/sqlitetutorial_prikey.sql"
    } ],
    "defaultSchema" : 102,
    "schemas" : [ 102 ],
    "types" : [ 108, 113 ],
    "name" : "DB",
    "startLine" : 0,
    "endLine" : 0,
    "startCol" : 0,
    "endCol" : 0
  },
  "databases" : [ 101 ],
  "defaultDatabase" : 101,
  "innerFunctions" : [ ],
  "startLine" : 0,
  "endLine" : 0,
  "startCol" : 0,
  "endCol" : 0
}