{
  "type" : "SQLRoot",
  "id" : 100,
  "_defaultDatabase" : {
    "type" : "Database",
    "id" : 101,
    "_defaultSchema" : {
      "type" : "Schema",
      "id" : 102,
      "views" : [ ],
      "functions" : [ ],
      "triggers" : [ ],
      "tables" : [ {
        "type" : "Table",
        "id" : 105,
        "temporary" : false,
        "external" : false,
        "columns" : [ {
          "type" : "Column",
          "id" : 110,
          "_type" : {
            "type" : "NumericType",
            "id" : 108,
            "kind" : "NUMERIC",
            "precision" : 0,
            "scale" : 0,
            "unsigned" : false,
            "zerofill" : false,
            "startLine" : 0,
            "endLine" : 0,
            "startCol" : 0,
            "endCol" : 0
          },
          "type" : 108,
          "attributes" : [ {
            "type" : "ColumnAttribute",
            "id" : 109,
            "kind" : "NOTNULL",
            "startLine" : 0,
            "endLine" : 0,
            "startCol" : 0,
            "endCol" : 0
          } ],
          "name" : "name",
          "startLine" : 0,
          "endLine" : 0,
          "startCol" : 0,
          "endCol" : 0
        }, {
          "type" : "Column",
          "id" : 114,
          "_type" : 108,
          "type" : 108,
          "attributes" : [ {
            "type" : "ColumnAttribute",
            "id" : 113,
            "kind" : "NOTNULL",
            "startLine" : 0,
            "endLine" : 0,
            "startCol" : 0,
            "endCol" : 0
          } ],
          "name" : "model",
          "startLine" : 0,
          "endLine" : 0,
          "startCol" : 0,
          "endCol" : 0
        }, {
          "type" : "Column",
          "id" : 119,
          "_type" : 108,
          "type" : 108,
          "attributes" : [ {
            "type" : "ColumnAttribute",
            "id" : 117,
            "kind" : "NOTNULL",
            "startLine" : 0,
            "endLine" : 0,
            "startCol" : 0,
            "endCol" : 0
          }, {
            "type" : "ColumnAttribute",
            "id" : 118,
            "kind" : "UNIQUE",
            "startLine" : 0,
            "endLine" : 0,
            "startCol" : 0,
            "endCol" : 0
          } ],
          "name" : "serial",
          "startLine" : 0,
          "endLine" : 0,
          "startCol" : 0,
          "endCol" : 0
        } ],
        "uniqueKeys" : [ ],
        "foreignKeys" : [ ],
        "name" : "devices",
        "startLine" : 0,
        "endLine" : 0,
        "startCol" : 0,
        "endCol" : 0
      } ],
      "name" : "SCH",
      "startLine" : 0,
      "endLine" : 0,
      "startCol" : 0,
      "endCol" : 0
    },
    "statements" : [ {
      "type" : "CreateTable",
      "id" : 104,
      "_table" : {
        "type" : "Id",
        "id" : 103,
        "_refersTo" : 105,
        "quoted" : false,
        "refersTo" : 105,
        "name" : "devices",
        "startLine" : 1,
        "endLine" : 1,
        "startCol" : 13,
        "endCol" : 19,
        "path" : "../../src/resources/input/sqlite/sqlitetutorial_altertable.sql"
      },
      "_schemaTable" : 105,
      "schemaTable" : 105,
      "ifNotExists" : false,
      "table" : 103,
      "internalId" : 0,
      "error" : false,
      "errorLine" : 0,
      "errorCol" : 0,
      "startLine" : 1,
      "endLine" : 1,
      "startCol" : 0,
      "endCol" : 5,
      "path" : "../../src/resources/input/sqlite/sqlitetutorial_altertable.sql"
    }, {
      "type" : "Insert",
      "id" : 121,
      "_columnList" : {
        "type" : "ExpressionList",
        "id" : 123,
        "expressions" : [ {
          "type" : "Id",
          "id" : 122,
          "_refersTo" : 110,
          "quoted" : false,
          "refersTo" : 110,
          "name" : "name",
          "startLine" : 7,
          "endLine" : 7,
          "startCol" : 21,
          "endCol" : 24,
          "path" : "../../src/resources/input/sqlite/sqlitetutorial_altertable.sql"
        }, {
          "type" : "Id",
          "id" : 124,
          "_refersTo" : 114,
          "quoted" : false,
          "refersTo" : 114,
          "name" : "model",
          "startLine" : 7,
          "endLine" : 7,
          "startCol" : 27,
          "endCol" : 31,
          "path" : "../../src/resources/input/sqlite/sqlitetutorial_altertable.sql"
        }, {
          "type" : "Id",
          "id" : 125,
          "_refersTo" : 119,
          "quoted" : false,
          "refersTo" : 119,
          "name" : "serial",
          "startLine" : 7,
          "endLine" : 7,
          "startCol" : 34,
          "endCol" : 39,
          "path" : "../../src/resources/input/sqlite/sqlitetutorial_altertable.sql"
        } ],
        "startLine" : 7,
        "endLine" : 7,
        "startCol" : 21,
        "endCol" : 39,
        "path" : "../../src/resources/input/sqlite/sqlitetutorial_altertable.sql"
      },
      "_table" : {
        "type" : "Id",
        "id" : 120,
        "_refersTo" : 105,
        "quoted" : false,
        "refersTo" : 105,
        "name" : "devices",
        "startLine" : 7,
        "endLine" : 7,
        "startCol" : 12,
        "endCol" : 18,
        "path" : "../../src/resources/input/sqlite/sqlitetutorial_altertable.sql"
      },
      "_query" : {
        "type" : "Values",
        "id" : 130,
        "_list" : {
          "type" : "ExpressionList",
          "id" : 127,
          "expressions" : [ {
            "type" : "Literal",
            "id" : 126,
            "kind" : "STRING",
            "value" : "'HP ZBook 17 G3 Mobile Workstation'",
            "startLine" : 10,
            "endLine" : 10,
            "startCol" : 1,
            "endCol" : 35,
            "path" : "../../src/resources/input/sqlite/sqlitetutorial_altertable.sql"
          }, {
            "type" : "Literal",
            "id" : 128,
            "kind" : "STRING",
            "value" : "'ZBook'",
            "startLine" : 11,
            "endLine" : 11,
            "startCol" : 1,
            "endCol" : 7,
            "path" : "../../src/resources/input/sqlite/sqlitetutorial_altertable.sql"
          }, {
            "type" : "Literal",
            "id" : 129,
            "kind" : "STRING",
            "value" : "'SN-2015'",
            "startLine" : 12,
            "endLine" : 12,
            "startCol" : 1,
            "endCol" : 9,
            "path" : "../../src/resources/input/sqlite/sqlitetutorial_altertable.sql"
          } ],
          "startLine" : 10,
          "endLine" : 12,
          "startCol" : 1,
          "endCol" : 9,
          "path" : "../../src/resources/input/sqlite/sqlitetutorial_altertable.sql"
        },
        "list" : 127,
        "startLine" : 8,
        "endLine" : 8,
        "startCol" : 0,
        "endCol" : 5,
        "path" : "../../src/resources/input/sqlite/sqlitetutorial_altertable.sql"
      },
      "columnList" : 123,
      "overwrite" : false,
      "table" : 120,
      "query" : 130,
      "internalId" : 0,
      "error" : false,
      "errorLine" : 0,
      "errorCol" : 0,
      "startLine" : 7,
      "endLine" : 8,
      "startCol" : 0,
      "endCol" : 5,
      "path" : "../../src/resources/input/sqlite/sqlitetutorial_altertable.sql"
    }, {
      "type" : "AlterTable",
      "id" : 132,
      "_table" : {
        "type" : "Id",
        "id" : 131,
        "_refersTo" : 105,
        "quoted" : false,
        "refersTo" : 105,
        "name" : "devices",
        "startLine" : 14,
        "endLine" : 14,
        "startCol" : 12,
        "endCol" : 18,
        "path" : "../../src/resources/input/sqlite/sqlitetutorial_altertable.sql"
      },
      "table" : 131,
      "internalId" : 0,
      "error" : false,
      "errorLine" : 0,
      "errorCol" : 0,
      "startLine" : 14,
      "endLine" : 14,
      "startCol" : 0,
      "endCol" : 18,
      "path" : "../../src/resources/input/sqlite/sqlitetutorial_altertable.sql"
    }, {
      "type" : "Select",
      "id" : 140,
      "_query" : {
        "type" : "SelectExpression",
        "id" : 138,
        "_columnList" : {
          "type" : "ExpressionList",
          "id" : 135,
          "expressions" : [ {
            "type" : "Id",
            "id" : 134,
            "quoted" : false,
            "name" : "name",
            "startLine" : 17,
            "endLine" : 17,
            "startCol" : 1,
            "endCol" : 4,
            "path" : "../../src/resources/input/sqlite/sqlitetutorial_altertable.sql"
          }, {
            "type" : "Id",
            "id" : 136,
            "quoted" : false,
            "name" : "model",
            "startLine" : 18,
            "endLine" : 18,
            "startCol" : 1,
            "endCol" : 5,
            "path" : "../../src/resources/input/sqlite/sqlitetutorial_altertable.sql"
          }, {
            "type" : "Id",
            "id" : 137,
            "quoted" : false,
            "name" : "serial",
            "startLine" : 19,
            "endLine" : 19,
            "startCol" : 1,
            "endCol" : 6,
            "path" : "../../src/resources/input/sqlite/sqlitetutorial_altertable.sql"
          } ],
          "startLine" : 17,
          "endLine" : 19,
          "startCol" : 1,
          "endCol" : 6,
          "path" : "../../src/resources/input/sqlite/sqlitetutorial_altertable.sql"
        },
        "_from" : {
          "type" : "Id",
          "id" : 139,
          "quoted" : false,
          "name" : "equipment",
          "startLine" : 21,
          "endLine" : 21,
          "startCol" : 1,
          "endCol" : 9,
          "path" : "../../src/resources/input/sqlite/sqlitetutorial_altertable.sql"
        },
        "columnList" : 135,
        "from" : 139,
        "startLine" : 16,
        "endLine" : 21,
        "startCol" : 0,
        "endCol" : 9,
        "path" : "../../src/resources/input/sqlite/sqlitetutorial_altertable.sql"
      },
      "query" : 138,
      "internalId" : 0,
      "error" : false,
      "errorLine" : 0,
      "errorCol" : 0,
      "startLine" : 16,
      "endLine" : 21,
      "startCol" : 0,
      "endCol" : 9,
      "path" : "../../src/resources/input/sqlite/sqlitetutorial_altertable.sql"
    }, {
      "type" : "AlterTable",
      "id" : 142,
      "_table" : {
        "type" : "Id",
        "id" : 141,
        "quoted" : false,
        "name" : "equipment",
        "startLine" : 22,
        "endLine" : 22,
        "startCol" : 12,
        "endCol" : 20,
        "path" : "../../src/resources/input/sqlite/sqlitetutorial_altertable.sql"
      },
      "table" : 141,
      "internalId" : 0,
      "error" : false,
      "errorLine" : 0,
      "errorCol" : 0,
      "startLine" : 22,
      "endLine" : 22,
      "startCol" : 0,
      "endCol" : 20,
      "path" : "../../src/resources/input/sqlite/sqlitetutorial_altertable.sql"
    } ],
    "defaultSchema" : 102,
    "schemas" : [ 102 ],
    "types" : [ 108 ],
    "name" : "DB",
    "startLine" : 0,
    "endLine" : 0,
    "startCol" : 0,
    "endCol" : 0
  },
  "databases" : [ 101 ],
  "defaultDatabase" : 101,
  "innerFunctions" : [ ],
  "startLine" : 0,
  "endLine" : 0,
  "startCol" : 0,
  "endCol" : 0
}