{
  "type" : "SQLRoot",
  "id" : 100,
  "_defaultDatabase" : {
    "type" : "Database",
    "id" : 101,
    "_defaultSchema" : {
      "type" : "Schema",
      "id" : 102,
      "views" : [ ],
      "functions" : [ ],
      "triggers" : [ ],
      "tables" : [ {
        "type" : "Table",
        "id" : 105,
        "temporary" : false,
        "external" : false,
        "columns" : [ {
          "type" : "Column",
          "id" : 110,
          "_type" : {
            "type" : "NumericType",
            "id" : 108,
            "kind" : "NUMERIC",
            "precision" : 0,
            "scale" : 0,
            "unsigned" : false,
            "zerofill" : false,
            "startLine" : 0,
            "endLine" : 0,
            "startCol" : 0,
            "endCol" : 0
          },
          "type" : 108,
          "attributes" : [ {
            "type" : "ColumnAttribute",
            "id" : 109,
            "kind" : "PRIMARYKEY",
            "startLine" : 0,
            "endLine" : 0,
            "startCol" : 0,
            "endCol" : 0
          } ],
          "name" : "person_id",
          "startLine" : 0,
          "endLine" : 0,
          "startCol" : 0,
          "endCol" : 0
        }, {
          "type" : "Column",
          "id" : 113,
          "_type" : 108,
          "type" : 108,
          "attributes" : [ ],
          "name" : "first_name",
          "startLine" : 0,
          "endLine" : 0,
          "startCol" : 0,
          "endCol" : 0
        }, {
          "type" : "Column",
          "id" : 116,
          "_type" : 108,
          "type" : 108,
          "attributes" : [ ],
          "name" : "last_name",
          "startLine" : 0,
          "endLine" : 0,
          "startCol" : 0,
          "endCol" : 0
        }, {
          "type" : "Column",
          "id" : 119,
          "_type" : 108,
          "type" : 108,
          "attributes" : [ ],
          "name" : "address_id",
          "startLine" : 0,
          "endLine" : 0,
          "startCol" : 0,
          "endCol" : 0
        } ],
        "uniqueKeys" : [ ],
        "foreignKeys" : [ ],
        "name" : "people",
        "startLine" : 0,
        "endLine" : 0,
        "startCol" : 0,
        "endCol" : 0
      }, {
        "type" : "Table",
        "id" : 125,
        "temporary" : false,
        "external" : false,
        "columns" : [ {
          "type" : "Column",
          "id" : 129,
          "_type" : 108,
          "type" : 108,
          "attributes" : [ {
            "type" : "ColumnAttribute",
            "id" : 128,
            "kind" : "PRIMARYKEY",
            "startLine" : 0,
            "endLine" : 0,
            "startCol" : 0,
            "endCol" : 0
          } ],
          "name" : "address_id",
          "startLine" : 0,
          "endLine" : 0,
          "startCol" : 0,
          "endCol" : 0
        }, {
          "type" : "Column",
          "id" : 132,
          "_type" : 108,
          "type" : 108,
          "attributes" : [ ],
          "name" : "house_no",
          "startLine" : 0,
          "endLine" : 0,
          "startCol" : 0,
          "endCol" : 0
        }, {
          "type" : "Column",
          "id" : 135,
          "_type" : 108,
          "type" : 108,
          "attributes" : [ ],
          "name" : "street",
          "startLine" : 0,
          "endLine" : 0,
          "startCol" : 0,
          "endCol" : 0
        }, {
          "type" : "Column",
          "id" : 138,
          "_type" : 108,
          "type" : 108,
          "attributes" : [ ],
          "name" : "city",
          "startLine" : 0,
          "endLine" : 0,
          "startCol" : 0,
          "endCol" : 0
        }, {
          "type" : "Column",
          "id" : 141,
          "_type" : 108,
          "type" : 108,
          "attributes" : [ ],
          "name" : "postal_code",
          "startLine" : 0,
          "endLine" : 0,
          "startCol" : 0,
          "endCol" : 0
        }, {
          "type" : "Column",
          "id" : 144,
          "_type" : 108,
          "type" : 108,
          "attributes" : [ ],
          "name" : "country",
          "startLine" : 0,
          "endLine" : 0,
          "startCol" : 0,
          "endCol" : 0
        } ],
        "uniqueKeys" : [ ],
        "foreignKeys" : [ ],
        "name" : "addresses",
        "startLine" : 0,
        "endLine" : 0,
        "startCol" : 0,
        "endCol" : 0
      } ],
      "name" : "SCH",
      "startLine" : 0,
      "endLine" : 0,
      "startCol" : 0,
      "endCol" : 0
    },
    "statements" : [ {
      "type" : "CreateTable",
      "id" : 104,
      "_table" : {
        "type" : "Id",
        "id" : 103,
        "_refersTo" : 105,
        "quoted" : false,
        "refersTo" : 105,
        "name" : "people",
        "startLine" : 1,
        "endLine" : 1,
        "startCol" : 27,
        "endCol" : 32,
        "path" : "../../src/resources/input/sqlite/sqlitetutorial_drop.sql"
      },
      "_schemaTable" : 105,
      "schemaTable" : 105,
      "ifNotExists" : true,
      "table" : 103,
      "internalId" : 0,
      "error" : false,
      "errorLine" : 0,
      "errorCol" : 0,
      "startLine" : 1,
      "endLine" : 1,
      "startCol" : 0,
      "endCol" : 5,
      "path" : "../../src/resources/input/sqlite/sqlitetutorial_drop.sql"
    }, {
      "type" : "CreateTable",
      "id" : 124,
      "_table" : {
        "type" : "Id",
        "id" : 123,
        "_refersTo" : 125,
        "quoted" : false,
        "refersTo" : 125,
        "name" : "addresses",
        "startLine" : 9,
        "endLine" : 9,
        "startCol" : 27,
        "endCol" : 35,
        "path" : "../../src/resources/input/sqlite/sqlitetutorial_drop.sql"
      },
      "_schemaTable" : 125,
      "schemaTable" : 125,
      "ifNotExists" : true,
      "table" : 123,
      "internalId" : 0,
      "error" : false,
      "errorLine" : 0,
      "errorCol" : 0,
      "startLine" : 9,
      "endLine" : 9,
      "startCol" : 0,
      "endCol" : 5,
      "path" : "../../src/resources/input/sqlite/sqlitetutorial_drop.sql"
    }, {
      "type" : "Insert",
      "id" : 146,
      "_columnList" : {
        "type" : "ExpressionList",
        "id" : 148,
        "expressions" : [ {
          "type" : "Id",
          "id" : 147,
          "_refersTo" : 132,
          "quoted" : false,
          "refersTo" : 132,
          "name" : "house_no",
          "startLine" : 19,
          "endLine" : 19,
          "startCol" : 1,
          "endCol" : 8,
          "path" : "../../src/resources/input/sqlite/sqlitetutorial_drop.sql"
        }, {
          "type" : "Id",
          "id" : 149,
          "_refersTo" : 135,
          "quoted" : false,
          "refersTo" : 135,
          "name" : "street",
          "startLine" : 20,
          "endLine" : 20,
          "startCol" : 1,
          "endCol" : 6,
          "path" : "../../src/resources/input/sqlite/sqlitetutorial_drop.sql"
        }, {
          "type" : "Id",
          "id" : 150,
          "_refersTo" : 138,
          "quoted" : false,
          "refersTo" : 138,
          "name" : "city",
          "startLine" : 21,
          "endLine" : 21,
          "startCol" : 1,
          "endCol" : 4,
          "path" : "../../src/resources/input/sqlite/sqlitetutorial_drop.sql"
        }, {
          "type" : "Id",
          "id" : 151,
          "_refersTo" : 141,
          "quoted" : false,
          "refersTo" : 141,
          "name" : "postal_code",
          "startLine" : 22,
          "endLine" : 22,
          "startCol" : 1,
          "endCol" : 11,
          "path" : "../../src/resources/input/sqlite/sqlitetutorial_drop.sql"
        }, {
          "type" : "Id",
          "id" : 152,
          "_refersTo" : 144,
          "quoted" : false,
          "refersTo" : 144,
          "name" : "country",
          "startLine" : 23,
          "endLine" : 23,
          "startCol" : 1,
          "endCol" : 7,
          "path" : "../../src/resources/input/sqlite/sqlitetutorial_drop.sql"
        } ],
        "startLine" : 19,
        "endLine" : 23,
        "startCol" : 1,
        "endCol" : 7,
        "path" : "../../src/resources/input/sqlite/sqlitetutorial_drop.sql"
      },
      "_table" : {
        "type" : "Id",
        "id" : 145,
        "_refersTo" : 125,
        "quoted" : false,
        "refersTo" : 125,
        "name" : "addresses",
        "startLine" : 18,
        "endLine" : 18,
        "startCol" : 12,
        "endCol" : 20,
        "path" : "../../src/resources/input/sqlite/sqlitetutorial_drop.sql"
      },
      "_query" : {
        "type" : "Values",
        "id" : 159,
        "_list" : {
          "type" : "ExpressionList",
          "id" : 154,
          "expressions" : [ {
            "type" : "Literal",
            "id" : 153,
            "kind" : "STRING",
            "value" : "'3960'",
            "startLine" : 27,
            "endLine" : 27,
            "startCol" : 1,
            "endCol" : 6,
            "path" : "../../src/resources/input/sqlite/sqlitetutorial_drop.sql"
          }, {
            "type" : "Literal",
            "id" : 155,
            "kind" : "STRING",
            "value" : "'North 1st Street'",
            "startLine" : 28,
            "endLine" : 28,
            "startCol" : 1,
            "endCol" : 18,
            "path" : "../../src/resources/input/sqlite/sqlitetutorial_drop.sql"
          }, {
            "type" : "Literal",
            "id" : 156,
            "kind" : "STRING",
            "value" : "'San Jose '",
            "startLine" : 29,
            "endLine" : 29,
            "startCol" : 1,
            "endCol" : 11,
            "path" : "../../src/resources/input/sqlite/sqlitetutorial_drop.sql"
          }, {
            "type" : "Literal",
            "id" : 157,
            "kind" : "STRING",
            "value" : "'95134'",
            "startLine" : 30,
            "endLine" : 30,
            "startCol" : 1,
            "endCol" : 7,
            "path" : "../../src/resources/input/sqlite/sqlitetutorial_drop.sql"
          }, {
            "type" : "Literal",
            "id" : 158,
            "kind" : "STRING",
            "value" : "'USA '",
            "startLine" : 31,
            "endLine" : 31,
            "startCol" : 1,
            "endCol" : 6,
            "path" : "../../src/resources/input/sqlite/sqlitetutorial_drop.sql"
          } ],
          "startLine" : 27,
          "endLine" : 31,
          "startCol" : 1,
          "endCol" : 6,
          "path" : "../../src/resources/input/sqlite/sqlitetutorial_drop.sql"
        },
        "list" : 154,
        "startLine" : 25,
        "endLine" : 25,
        "startCol" : 0,
        "endCol" : 5,
        "path" : "../../src/resources/input/sqlite/sqlitetutorial_drop.sql"
      },
      "columnList" : 148,
      "overwrite" : false,
      "table" : 145,
      "query" : 159,
      "internalId" : 0,
      "error" : false,
      "errorLine" : 0,
      "errorCol" : 0,
      "startLine" : 18,
      "endLine" : 25,
      "startCol" : 0,
      "endCol" : 5,
      "path" : "../../src/resources/input/sqlite/sqlitetutorial_drop.sql"
    }, {
      "type" : "Insert",
      "id" : 161,
      "_columnList" : {
        "type" : "ExpressionList",
        "id" : 163,
        "expressions" : [ {
          "type" : "Id",
          "id" : 162,
          "_refersTo" : 113,
          "quoted" : false,
          "refersTo" : 113,
          "name" : "first_name",
          "startLine" : 35,
          "endLine" : 35,
          "startCol" : 1,
          "endCol" : 10,
          "path" : "../../src/resources/input/sqlite/sqlitetutorial_drop.sql"
        }, {
          "type" : "Id",
          "id" : 164,
          "_refersTo" : 116,
          "quoted" : false,
          "refersTo" : 116,
          "name" : "last_name",
          "startLine" : 36,
          "endLine" : 36,
          "startCol" : 1,
          "endCol" : 9,
          "path" : "../../src/resources/input/sqlite/sqlitetutorial_drop.sql"
        }, {
          "type" : "Id",
          "id" : 165,
          "_refersTo" : 119,
          "quoted" : false,
          "refersTo" : 119,
          "name" : "address_id",
          "startLine" : 37,
          "endLine" : 37,
          "startCol" : 1,
          "endCol" : 10,
          "path" : "../../src/resources/input/sqlite/sqlitetutorial_drop.sql"
        } ],
        "startLine" : 35,
        "endLine" : 37,
        "startCol" : 1,
        "endCol" : 10,
        "path" : "../../src/resources/input/sqlite/sqlitetutorial_drop.sql"
      },
      "_table" : {
        "type" : "Id",
        "id" : 160,
        "_refersTo" : 105,
        "quoted" : false,
        "refersTo" : 105,
        "name" : "people",
        "startLine" : 34,
        "endLine" : 34,
        "startCol" : 12,
        "endCol" : 17,
        "path" : "../../src/resources/input/sqlite/sqlitetutorial_drop.sql"
      },
      "_query" : {
        "type" : "Values",
        "id" : 170,
        "_list" : {
          "type" : "ExpressionList",
          "id" : 167,
          "expressions" : [ {
            "type" : "Literal",
            "id" : 166,
            "kind" : "STRING",
            "value" : "'John'",
            "startLine" : 40,
            "endLine" : 40,
            "startCol" : 2,
            "endCol" : 7,
            "path" : "../../src/resources/input/sqlite/sqlitetutorial_drop.sql"
          }, {
            "type" : "Literal",
            "id" : 168,
            "kind" : "STRING",
            "value" : "'Doe'",
            "startLine" : 40,
            "endLine" : 40,
            "startCol" : 10,
            "endCol" : 14,
            "path" : "../../src/resources/input/sqlite/sqlitetutorial_drop.sql"
          }, {
            "type" : "Literal",
            "id" : 169,
            "kind" : "INTEGER",
            "value" : "1",
            "startLine" : 40,
            "endLine" : 40,
            "startCol" : 17,
            "endCol" : 17,
            "path" : "../../src/resources/input/sqlite/sqlitetutorial_drop.sql"
          } ],
          "startLine" : 40,
          "endLine" : 40,
          "startCol" : 2,
          "endCol" : 17,
          "path" : "../../src/resources/input/sqlite/sqlitetutorial_drop.sql"
        },
        "list" : 167,
        "startLine" : 39,
        "endLine" : 39,
        "startCol" : 0,
        "endCol" : 5,
        "path" : "../../src/resources/input/sqlite/sqlitetutorial_drop.sql"
      },
      "columnList" : 163,
      "overwrite" : false,
      "table" : 160,
      "query" : 170,
      "internalId" : 0,
      "error" : false,
      "errorLine" : 0,
      "errorCol" : 0,
      "startLine" : 34,
      "endLine" : 39,
      "startCol" : 0,
      "endCol" : 5,
      "path" : "../../src/resources/input/sqlite/sqlitetutorial_drop.sql"
    }, {
      "type" : "DropTable",
      "id" : 172,
      "_tableList" : {
        "type" : "Id",
        "id" : 171,
        "_refersTo" : 125,
        "quoted" : false,
        "refersTo" : 125,
        "name" : "addresses",
        "startLine" : 42,
        "endLine" : 42,
        "startCol" : 11,
        "endCol" : 19,
        "path" : "../../src/resources/input/sqlite/sqlitetutorial_drop.sql"
      },
      "temporary" : false,
      "ifExists" : false,
      "purge" : false,
      "tableList" : 171,
      "internalId" : 0,
      "error" : false,
      "errorLine" : 0,
      "errorCol" : 0,
      "startLine" : 42,
      "endLine" : 42,
      "startCol" : 0,
      "endCol" : 19,
      "path" : "../../src/resources/input/sqlite/sqlitetutorial_drop.sql"
    } ],
    "defaultSchema" : 102,
    "schemas" : [ 102 ],
    "types" : [ 108 ],
    "name" : "DB",
    "startLine" : 0,
    "endLine" : 0,
    "startCol" : 0,
    "endCol" : 0
  },
  "databases" : [ 101 ],
  "defaultDatabase" : 101,
  "innerFunctions" : [ ],
  "startLine" : 0,
  "endLine" : 0,
  "startCol" : 0,
  "endCol" : 0
}