{
  "type" : "SQLRoot",
  "id" : 100,
  "_defaultDatabase" : {
    "type" : "Database",
    "id" : 101,
    "_defaultSchema" : {
      "type" : "Schema",
      "id" : 102,
      "tables" : [ {
        "type" : "Table",
        "id" : 105,
        "external" : false,
        "columns" : [ {
          "type" : "Column",
          "id" : 109,
          "_type" : {
            "type" : "NumericType",
            "id" : 108,
            "kind" : "NUMERIC",
            "scale" : 0,
            "unsigned" : false,
            "zerofill" : false,
            "precision" : 0,
            "endLine" : 0,
            "startLine" : 0,
            "startCol" : 0,
            "endCol" : 0
          },
          "type" : 108,
          "attributes" : [ ],
          "name" : "x",
          "endLine" : 0,
          "startLine" : 0,
          "startCol" : 0,
          "endCol" : 0
        }, {
          "type" : "Column",
          "id" : 112,
          "_type" : 108,
          "type" : 108,
          "attributes" : [ ],
          "name" : "y",
          "endLine" : 0,
          "startLine" : 0,
          "startCol" : 0,
          "endCol" : 0
        }, {
          "type" : "Column",
          "id" : 116,
          "_type" : 108,
          "type" : 108,
          "attributes" : [ {
            "type" : "ColumnAttribute",
            "id" : 115,
            "kind" : "NOTNULL",
            "endLine" : 0,
            "startLine" : 0,
            "startCol" : 0,
            "endCol" : 0
          } ],
          "name" : "z",
          "endLine" : 0,
          "startLine" : 0,
          "startCol" : 0,
          "endCol" : 0
        } ],
        "temporary" : false,
        "uniqueKeys" : [ ],
        "foreignKeys" : [ ],
        "name" : "fear",
        "endLine" : 0,
        "startLine" : 0,
        "startCol" : 0,
        "endCol" : 0
      }, {
        "type" : "Table",
        "id" : 172,
        "external" : false,
        "columns" : [ {
          "type" : "Column",
          "id" : 174,
          "attributes" : [ ],
          "name" : "_id",
          "endLine" : 0,
          "startLine" : 0,
          "startCol" : 0,
          "endCol" : 0
        }, {
          "type" : "Column",
          "id" : 177,
          "_type" : 108,
          "type" : 108,
          "attributes" : [ ],
          "name" : "x",
          "endLine" : 0,
          "startLine" : 0,
          "startCol" : 0,
          "endCol" : 0
        } ],
        "temporary" : false,
        "uniqueKeys" : [ ],
        "foreignKeys" : [ ],
        "name" : "t",
        "endLine" : 0,
        "startLine" : 0,
        "startCol" : 0,
        "endCol" : 0
      }, {
        "type" : "Table",
        "id" : 180,
        "external" : false,
        "columns" : [ {
          "type" : "Column",
          "id" : 182,
          "attributes" : [ ],
          "name" : "_id",
          "endLine" : 0,
          "startLine" : 0,
          "startCol" : 0,
          "endCol" : 0
        }, {
          "type" : "Column",
          "id" : 185,
          "_type" : 108,
          "type" : 108,
          "attributes" : [ ],
          "name" : "y",
          "endLine" : 0,
          "startLine" : 0,
          "startCol" : 0,
          "endCol" : 0
        } ],
        "temporary" : false,
        "uniqueKeys" : [ ],
        "foreignKeys" : [ ],
        "name" : "t2",
        "endLine" : 0,
        "startLine" : 0,
        "startCol" : 0,
        "endCol" : 0
      } ],
      "functions" : [ ],
      "views" : [ ],
      "triggers" : [ ],
      "name" : "SCH",
      "endLine" : 0,
      "startLine" : 0,
      "startCol" : 0,
      "endCol" : 0
    },
    "types" : [ 108, {
      "type" : "AnyType",
      "id" : 121,
      "endLine" : 0,
      "startLine" : 0,
      "startCol" : 0,
      "endCol" : 0
    } ],
    "defaultSchema" : 102,
    "schemas" : [ 102 ],
    "statements" : [ {
      "type" : "CreateTable",
      "id" : 104,
      "_table" : 105,
      "table" : 105,
      "ifNotExists" : false,
      "error" : false,
      "internalId" : 0,
      "errorLine" : 0,
      "errorCol" : 0,
      "path" : "/Users/csabanagy/work/sqlinspect/sqlinspect.sqlan.test/src/resources/input/sqlite-smells/ambiguousgroups.sql",
      "endLine" : 1,
      "startLine" : 1,
      "startCol" : 0,
      "endCol" : 5
    }, {
      "type" : "Select",
      "id" : 131,
      "_query" : {
        "type" : "SelectExpression",
        "id" : 127,
        "_columnList" : {
          "type" : "ExpressionList",
          "id" : 118,
          "expressions" : [ {
            "type" : "Id",
            "id" : 117,
            "_refersTo" : 109,
            "name" : "x",
            "refersTo" : 109,
            "quoted" : false,
            "path" : "/Users/csabanagy/work/sqlinspect/sqlinspect.sqlan.test/src/resources/input/sqlite-smells/ambiguousgroups.sql",
            "endLine" : 2,
            "startLine" : 2,
            "startCol" : 7,
            "endCol" : 7
          }, {
            "type" : "InnerFunctionCall",
            "id" : 122,
            "_expression" : {
              "type" : "Id",
              "id" : 119,
              "_refersTo" : {
                "type" : "Function",
                "id" : 120,
                "_returnType" : 121,
                "returnType" : 121,
                "name" : "max",
                "endLine" : 0,
                "startLine" : 0,
                "startCol" : 0,
                "endCol" : 0
              },
              "name" : "max",
              "refersTo" : 120,
              "quoted" : false,
              "path" : "/Users/csabanagy/work/sqlinspect/sqlinspect.sqlan.test/src/resources/input/sqlite-smells/ambiguousgroups.sql",
              "endLine" : 2,
              "startLine" : 2,
              "startCol" : 10,
              "endCol" : 12
            },
            "_paramList" : {
              "type" : "FunctionParams",
              "id" : 125,
              "_parameter" : {
                "type" : "ExpressionList",
                "id" : 124,
                "expressions" : [ {
                  "type" : "Id",
                  "id" : 123,
                  "_refersTo" : 112,
                  "name" : "y",
                  "refersTo" : 112,
                  "quoted" : false,
                  "path" : "/Users/csabanagy/work/sqlinspect/sqlinspect.sqlan.test/src/resources/input/sqlite-smells/ambiguousgroups.sql",
                  "endLine" : 2,
                  "startLine" : 2,
                  "startCol" : 14,
                  "endCol" : 14
                } ],
                "path" : "/Users/csabanagy/work/sqlinspect/sqlinspect.sqlan.test/src/resources/input/sqlite-smells/ambiguousgroups.sql",
                "endLine" : 2,
                "startLine" : 2,
                "startCol" : 14,
                "endCol" : 14
              },
              "kind" : "NONE",
              "parameter" : 124,
              "path" : "/Users/csabanagy/work/sqlinspect/sqlinspect.sqlan.test/src/resources/input/sqlite-smells/ambiguousgroups.sql",
              "endLine" : 2,
              "startLine" : 2,
              "startCol" : 14,
              "endCol" : 14
            },
            "paramList" : 125,
            "expression" : 119,
            "path" : "/Users/csabanagy/work/sqlinspect/sqlinspect.sqlan.test/src/resources/input/sqlite-smells/ambiguousgroups.sql",
            "endLine" : 2,
            "startLine" : 2,
            "startCol" : 10,
            "endCol" : 12
          }, {
            "type" : "Id",
            "id" : 126,
            "_refersTo" : 116,
            "name" : "z",
            "refersTo" : 116,
            "quoted" : false,
            "path" : "/Users/csabanagy/work/sqlinspect/sqlinspect.sqlan.test/src/resources/input/sqlite-smells/ambiguousgroups.sql",
            "endLine" : 2,
            "startLine" : 2,
            "startCol" : 18,
            "endCol" : 18
          } ],
          "path" : "/Users/csabanagy/work/sqlinspect/sqlinspect.sqlan.test/src/resources/input/sqlite-smells/ambiguousgroups.sql",
          "endLine" : 2,
          "startLine" : 2,
          "startCol" : 7,
          "endCol" : 18
        },
        "_from" : {
          "type" : "Id",
          "id" : 128,
          "_refersTo" : 105,
          "name" : "fear",
          "refersTo" : 105,
          "quoted" : false,
          "path" : "/Users/csabanagy/work/sqlinspect/sqlinspect.sqlan.test/src/resources/input/sqlite-smells/ambiguousgroups.sql",
          "endLine" : 2,
          "startLine" : 2,
          "startCol" : 25,
          "endCol" : 28
        },
        "_groupBy" : {
          "type" : "ExpressionList",
          "id" : 130,
          "expressions" : [ {
            "type" : "Id",
            "id" : 129,
            "_refersTo" : 109,
            "name" : "x",
            "refersTo" : 109,
            "quoted" : false,
            "path" : "/Users/csabanagy/work/sqlinspect/sqlinspect.sqlan.test/src/resources/input/sqlite-smells/ambiguousgroups.sql",
            "endLine" : 2,
            "startLine" : 2,
            "startCol" : 39,
            "endCol" : 39
          } ],
          "path" : "/Users/csabanagy/work/sqlinspect/sqlinspect.sqlan.test/src/resources/input/sqlite-smells/ambiguousgroups.sql",
          "endLine" : 2,
          "startLine" : 2,
          "startCol" : 39,
          "endCol" : 39
        },
        "from" : 128,
        "columnList" : 118,
        "groupBy" : 130,
        "path" : "/Users/csabanagy/work/sqlinspect/sqlinspect.sqlan.test/src/resources/input/sqlite-smells/ambiguousgroups.sql",
        "endLine" : 2,
        "startLine" : 2,
        "startCol" : 0,
        "endCol" : 39
      },
      "query" : 127,
      "error" : false,
      "internalId" : 0,
      "errorLine" : 0,
      "errorCol" : 0,
      "path" : "/Users/csabanagy/work/sqlinspect/sqlinspect.sqlan.test/src/resources/input/sqlite-smells/ambiguousgroups.sql",
      "endLine" : 2,
      "startLine" : 2,
      "startCol" : 0,
      "endCol" : 39
    }, {
      "type" : "Select",
      "id" : 144,
      "_query" : {
        "type" : "SelectExpression",
        "id" : 140,
        "_columnList" : {
          "type" : "ExpressionList",
          "id" : 133,
          "expressions" : [ {
            "type" : "Id",
            "id" : 132,
            "name" : "x",
            "quoted" : false,
            "path" : "/Users/csabanagy/work/sqlinspect/sqlinspect.sqlan.test/src/resources/input/sqlite-smells/ambiguousgroups.sql",
            "endLine" : 3,
            "startLine" : 3,
            "startCol" : 7,
            "endCol" : 7
          }, {
            "type" : "InnerFunctionCall",
            "id" : 135,
            "_expression" : {
              "type" : "Id",
              "id" : 134,
              "_refersTo" : 120,
              "name" : "max",
              "refersTo" : 120,
              "quoted" : false,
              "path" : "/Users/csabanagy/work/sqlinspect/sqlinspect.sqlan.test/src/resources/input/sqlite-smells/ambiguousgroups.sql",
              "endLine" : 3,
              "startLine" : 3,
              "startCol" : 10,
              "endCol" : 12
            },
            "_paramList" : {
              "type" : "FunctionParams",
              "id" : 138,
              "_parameter" : {
                "type" : "ExpressionList",
                "id" : 137,
                "expressions" : [ {
                  "type" : "Id",
                  "id" : 136,
                  "name" : "y",
                  "quoted" : false,
                  "path" : "/Users/csabanagy/work/sqlinspect/sqlinspect.sqlan.test/src/resources/input/sqlite-smells/ambiguousgroups.sql",
                  "endLine" : 3,
                  "startLine" : 3,
                  "startCol" : 14,
                  "endCol" : 14
                } ],
                "path" : "/Users/csabanagy/work/sqlinspect/sqlinspect.sqlan.test/src/resources/input/sqlite-smells/ambiguousgroups.sql",
                "endLine" : 3,
                "startLine" : 3,
                "startCol" : 14,
                "endCol" : 14
              },
              "kind" : "NONE",
              "parameter" : 137,
              "path" : "/Users/csabanagy/work/sqlinspect/sqlinspect.sqlan.test/src/resources/input/sqlite-smells/ambiguousgroups.sql",
              "endLine" : 3,
              "startLine" : 3,
              "startCol" : 14,
              "endCol" : 14
            },
            "paramList" : 138,
            "expression" : 134,
            "path" : "/Users/csabanagy/work/sqlinspect/sqlinspect.sqlan.test/src/resources/input/sqlite-smells/ambiguousgroups.sql",
            "endLine" : 3,
            "startLine" : 3,
            "startCol" : 10,
            "endCol" : 12
          }, {
            "type" : "Id",
            "id" : 139,
            "name" : "z",
            "quoted" : false,
            "path" : "/Users/csabanagy/work/sqlinspect/sqlinspect.sqlan.test/src/resources/input/sqlite-smells/ambiguousgroups.sql",
            "endLine" : 3,
            "startLine" : 3,
            "startCol" : 18,
            "endCol" : 18
          } ],
          "path" : "/Users/csabanagy/work/sqlinspect/sqlinspect.sqlan.test/src/resources/input/sqlite-smells/ambiguousgroups.sql",
          "endLine" : 3,
          "startLine" : 3,
          "startCol" : 7,
          "endCol" : 18
        },
        "_from" : {
          "type" : "Id",
          "id" : 141,
          "name" : "test",
          "quoted" : false,
          "path" : "/Users/csabanagy/work/sqlinspect/sqlinspect.sqlan.test/src/resources/input/sqlite-smells/ambiguousgroups.sql",
          "endLine" : 3,
          "startLine" : 3,
          "startCol" : 25,
          "endCol" : 28
        },
        "_groupBy" : {
          "type" : "ExpressionList",
          "id" : 143,
          "expressions" : [ {
            "type" : "Id",
            "id" : 142,
            "name" : "x",
            "quoted" : false,
            "path" : "/Users/csabanagy/work/sqlinspect/sqlinspect.sqlan.test/src/resources/input/sqlite-smells/ambiguousgroups.sql",
            "endLine" : 3,
            "startLine" : 3,
            "startCol" : 39,
            "endCol" : 39
          } ],
          "path" : "/Users/csabanagy/work/sqlinspect/sqlinspect.sqlan.test/src/resources/input/sqlite-smells/ambiguousgroups.sql",
          "endLine" : 3,
          "startLine" : 3,
          "startCol" : 39,
          "endCol" : 39
        },
        "from" : 141,
        "columnList" : 133,
        "groupBy" : 143,
        "path" : "/Users/csabanagy/work/sqlinspect/sqlinspect.sqlan.test/src/resources/input/sqlite-smells/ambiguousgroups.sql",
        "endLine" : 3,
        "startLine" : 3,
        "startCol" : 0,
        "endCol" : 39
      },
      "query" : 140,
      "error" : false,
      "internalId" : 0,
      "errorLine" : 0,
      "errorCol" : 0,
      "path" : "/Users/csabanagy/work/sqlinspect/sqlinspect.sqlan.test/src/resources/input/sqlite-smells/ambiguousgroups.sql",
      "endLine" : 3,
      "startLine" : 3,
      "startCol" : 0,
      "endCol" : 39
    }, {
      "type" : "Select",
      "id" : 169,
      "_query" : {
        "type" : "SelectExpression",
        "id" : 161,
        "_columnList" : {
          "type" : "ExpressionList",
          "id" : 146,
          "expressions" : [ {
            "type" : "Id",
            "id" : 145,
            "_refersTo" : 109,
            "name" : "x",
            "refersTo" : 109,
            "quoted" : false,
            "path" : "/Users/csabanagy/work/sqlinspect/sqlinspect.sqlan.test/src/resources/input/sqlite-smells/ambiguousgroups.sql",
            "endLine" : 5,
            "startLine" : 5,
            "startCol" : 7,
            "endCol" : 7
          }, {
            "type" : "Alias",
            "id" : 153,
            "_expression" : {
              "type" : "Cast",
              "id" : 151,
              "_expression" : {
                "type" : "BinaryExpression",
                "id" : 149,
                "_left" : {
                  "type" : "Id",
                  "id" : 147,
                  "_refersTo" : 112,
                  "name" : "y",
                  "refersTo" : 112,
                  "quoted" : false,
                  "path" : "/Users/csabanagy/work/sqlinspect/sqlinspect.sqlan.test/src/resources/input/sqlite-smells/ambiguousgroups.sql",
                  "endLine" : 5,
                  "startLine" : 5,
                  "startCol" : 16,
                  "endCol" : 16
                },
                "_right" : {
                  "type" : "Literal",
                  "id" : 148,
                  "value" : "86400000",
                  "kind" : "INTEGER",
                  "path" : "/Users/csabanagy/work/sqlinspect/sqlinspect.sqlan.test/src/resources/input/sqlite-smells/ambiguousgroups.sql",
                  "endLine" : 5,
                  "startLine" : 5,
                  "startCol" : 20,
                  "endCol" : 27
                },
                "kind" : "DIVIDE",
                "left" : 147,
                "right" : 148,
                "path" : "/Users/csabanagy/work/sqlinspect/sqlinspect.sqlan.test/src/resources/input/sqlite-smells/ambiguousgroups.sql",
                "endLine" : 5,
                "startLine" : 5,
                "startCol" : 16,
                "endCol" : 27
              },
              "_toType" : 108,
              "toType" : 108,
              "expression" : 149,
              "path" : "/Users/csabanagy/work/sqlinspect/sqlinspect.sqlan.test/src/resources/input/sqlite-smells/ambiguousgroups.sql",
              "endLine" : 5,
              "startLine" : 5,
              "startCol" : 10,
              "endCol" : 27
            },
            "name" : "d",
            "expression" : 151,
            "kind" : "AS",
            "path" : "/Users/csabanagy/work/sqlinspect/sqlinspect.sqlan.test/src/resources/input/sqlite-smells/ambiguousgroups.sql",
            "endLine" : 5,
            "startLine" : 5,
            "startCol" : 10,
            "endCol" : 41
          }, {
            "type" : "Alias",
            "id" : 160,
            "_expression" : {
              "type" : "InnerFunctionCall",
              "id" : 156,
              "_expression" : {
                "type" : "Id",
                "id" : 154,
                "_refersTo" : {
                  "type" : "Function",
                  "id" : 155,
                  "_returnType" : 121,
                  "returnType" : 121,
                  "name" : "COUNT",
                  "endLine" : 0,
                  "startLine" : 0,
                  "startCol" : 0,
                  "endCol" : 0
                },
                "name" : "COUNT",
                "refersTo" : 155,
                "quoted" : false,
                "path" : "/Users/csabanagy/work/sqlinspect/sqlinspect.sqlan.test/src/resources/input/sqlite-smells/ambiguousgroups.sql",
                "endLine" : 5,
                "startLine" : 5,
                "startCol" : 44,
                "endCol" : 48
              },
              "_paramList" : {
                "type" : "FunctionParams",
                "id" : 158,
                "_parameter" : {
                  "type" : "Asterisk",
                  "id" : 157,
                  "path" : "/Users/csabanagy/work/sqlinspect/sqlinspect.sqlan.test/src/resources/input/sqlite-smells/ambiguousgroups.sql",
                  "endLine" : 5,
                  "startLine" : 5,
                  "startCol" : 50,
                  "endCol" : 50
                },
                "kind" : "NONE",
                "parameter" : 157,
                "path" : "/Users/csabanagy/work/sqlinspect/sqlinspect.sqlan.test/src/resources/input/sqlite-smells/ambiguousgroups.sql",
                "endLine" : 5,
                "startLine" : 5,
                "startCol" : 50,
                "endCol" : 50
              },
              "paramList" : 158,
              "expression" : 154,
              "path" : "/Users/csabanagy/work/sqlinspect/sqlinspect.sqlan.test/src/resources/input/sqlite-smells/ambiguousgroups.sql",
              "endLine" : 5,
              "startLine" : 5,
              "startCol" : 44,
              "endCol" : 48
            },
            "name" : "cnt",
            "expression" : 156,
            "kind" : "AS",
            "path" : "/Users/csabanagy/work/sqlinspect/sqlinspect.sqlan.test/src/resources/input/sqlite-smells/ambiguousgroups.sql",
            "endLine" : 5,
            "startLine" : 5,
            "startCol" : 44,
            "endCol" : 58
          } ],
          "path" : "/Users/csabanagy/work/sqlinspect/sqlinspect.sqlan.test/src/resources/input/sqlite-smells/ambiguousgroups.sql",
          "endLine" : 5,
          "startLine" : 5,
          "startCol" : 7,
          "endCol" : 58
        },
        "_from" : {
          "type" : "Id",
          "id" : 162,
          "_refersTo" : 105,
          "name" : "fear",
          "refersTo" : 105,
          "quoted" : false,
          "path" : "/Users/csabanagy/work/sqlinspect/sqlinspect.sqlan.test/src/resources/input/sqlite-smells/ambiguousgroups.sql",
          "endLine" : 5,
          "startLine" : 5,
          "startCol" : 65,
          "endCol" : 68
        },
        "_where" : {
          "type" : "BinaryExpression",
          "id" : 165,
          "_left" : {
            "type" : "Id",
            "id" : 163,
            "_refersTo" : 116,
            "name" : "z",
            "refersTo" : 116,
            "quoted" : false,
            "path" : "/Users/csabanagy/work/sqlinspect/sqlinspect.sqlan.test/src/resources/input/sqlite-smells/ambiguousgroups.sql",
            "endLine" : 5,
            "startLine" : 5,
            "startCol" : 76,
            "endCol" : 76
          },
          "_right" : {
            "type" : "Literal",
            "id" : 164,
            "value" : "1",
            "kind" : "INTEGER",
            "path" : "/Users/csabanagy/work/sqlinspect/sqlinspect.sqlan.test/src/resources/input/sqlite-smells/ambiguousgroups.sql",
            "endLine" : 5,
            "startLine" : 5,
            "startCol" : 78,
            "endCol" : 78
          },
          "kind" : "EQUALS",
          "left" : 163,
          "right" : 164,
          "path" : "/Users/csabanagy/work/sqlinspect/sqlinspect.sqlan.test/src/resources/input/sqlite-smells/ambiguousgroups.sql",
          "endLine" : 5,
          "startLine" : 5,
          "startCol" : 76,
          "endCol" : 78
        },
        "_groupBy" : {
          "type" : "ExpressionList",
          "id" : 167,
          "expressions" : [ {
            "type" : "Id",
            "id" : 166,
            "_refersTo" : 109,
            "name" : "x",
            "refersTo" : 109,
            "quoted" : false,
            "path" : "/Users/csabanagy/work/sqlinspect/sqlinspect.sqlan.test/src/resources/input/sqlite-smells/ambiguousgroups.sql",
            "endLine" : 5,
            "startLine" : 5,
            "startCol" : 89,
            "endCol" : 89
          }, {
            "type" : "Id",
            "id" : 168,
            "_refersTo" : 153,
            "name" : "d",
            "refersTo" : 153,
            "quoted" : false,
            "path" : "/Users/csabanagy/work/sqlinspect/sqlinspect.sqlan.test/src/resources/input/sqlite-smells/ambiguousgroups.sql",
            "endLine" : 5,
            "startLine" : 5,
            "startCol" : 92,
            "endCol" : 92
          } ],
          "path" : "/Users/csabanagy/work/sqlinspect/sqlinspect.sqlan.test/src/resources/input/sqlite-smells/ambiguousgroups.sql",
          "endLine" : 5,
          "startLine" : 5,
          "startCol" : 89,
          "endCol" : 92
        },
        "from" : 162,
        "columnList" : 146,
        "where" : 165,
        "groupBy" : 167,
        "path" : "/Users/csabanagy/work/sqlinspect/sqlinspect.sqlan.test/src/resources/input/sqlite-smells/ambiguousgroups.sql",
        "endLine" : 5,
        "startLine" : 5,
        "startCol" : 0,
        "endCol" : 92
      },
      "query" : 161,
      "error" : false,
      "internalId" : 0,
      "errorLine" : 0,
      "errorCol" : 0,
      "path" : "/Users/csabanagy/work/sqlinspect/sqlinspect.sqlan.test/src/resources/input/sqlite-smells/ambiguousgroups.sql",
      "endLine" : 5,
      "startLine" : 5,
      "startCol" : 0,
      "endCol" : 92
    }, {
      "type" : "CreateTable",
      "id" : 171,
      "_table" : 172,
      "table" : 172,
      "ifNotExists" : false,
      "error" : false,
      "internalId" : 0,
      "errorLine" : 0,
      "errorCol" : 0,
      "path" : "/Users/csabanagy/work/sqlinspect/sqlinspect.sqlan.test/src/resources/input/sqlite-smells/ambiguousgroups.sql",
      "endLine" : 7,
      "startLine" : 7,
      "startCol" : 0,
      "endCol" : 5
    }, {
      "type" : "CreateTable",
      "id" : 179,
      "_table" : 180,
      "table" : 180,
      "ifNotExists" : false,
      "error" : false,
      "internalId" : 0,
      "errorLine" : 0,
      "errorCol" : 0,
      "path" : "/Users/csabanagy/work/sqlinspect/sqlinspect.sqlan.test/src/resources/input/sqlite-smells/ambiguousgroups.sql",
      "endLine" : 8,
      "startLine" : 8,
      "startCol" : 0,
      "endCol" : 5
    }, {
      "type" : "Select",
      "id" : 216,
      "_query" : {
        "type" : "SelectExpression",
        "id" : 200,
        "_columnList" : {
          "type" : "ExpressionList",
          "id" : 189,
          "expressions" : [ {
            "type" : "BinaryExpression",
            "id" : 188,
            "_left" : {
              "type" : "Id",
              "id" : 186,
              "_refersTo" : 172,
              "name" : "t",
              "refersTo" : 172,
              "quoted" : false,
              "path" : "/Users/csabanagy/work/sqlinspect/sqlinspect.sqlan.test/src/resources/input/sqlite-smells/ambiguousgroups.sql",
              "endLine" : 9,
              "startLine" : 9,
              "startCol" : 7,
              "endCol" : 7
            },
            "_right" : {
              "type" : "Id",
              "id" : 187,
              "_refersTo" : 174,
              "name" : "_id",
              "refersTo" : 174,
              "quoted" : false,
              "path" : "/Users/csabanagy/work/sqlinspect/sqlinspect.sqlan.test/src/resources/input/sqlite-smells/ambiguousgroups.sql",
              "endLine" : 9,
              "startLine" : 9,
              "startCol" : 9,
              "endCol" : 11
            },
            "kind" : "FIELDSELECTOR",
            "left" : 186,
            "right" : 187,
            "path" : "/Users/csabanagy/work/sqlinspect/sqlinspect.sqlan.test/src/resources/input/sqlite-smells/ambiguousgroups.sql",
            "endLine" : 9,
            "startLine" : 9,
            "startCol" : 7,
            "endCol" : 11
          }, {
            "type" : "Id",
            "id" : 190,
            "_refersTo" : 177,
            "name" : "x",
            "refersTo" : 177,
            "quoted" : false,
            "path" : "/Users/csabanagy/work/sqlinspect/sqlinspect.sqlan.test/src/resources/input/sqlite-smells/ambiguousgroups.sql",
            "endLine" : 9,
            "startLine" : 9,
            "startCol" : 14,
            "endCol" : 14
          }, {
            "type" : "Alias",
            "id" : 199,
            "_expression" : {
              "type" : "InnerFunctionCall",
              "id" : 192,
              "_expression" : {
                "type" : "Id",
                "id" : 191,
                "_refersTo" : 155,
                "name" : "COUNT",
                "refersTo" : 155,
                "quoted" : false,
                "path" : "/Users/csabanagy/work/sqlinspect/sqlinspect.sqlan.test/src/resources/input/sqlite-smells/ambiguousgroups.sql",
                "endLine" : 9,
                "startLine" : 9,
                "startCol" : 18,
                "endCol" : 22
              },
              "_paramList" : {
                "type" : "FunctionParams",
                "id" : 197,
                "_parameter" : {
                  "type" : "ExpressionList",
                  "id" : 196,
                  "expressions" : [ {
                    "type" : "BinaryExpression",
                    "id" : 195,
                    "_left" : {
                      "type" : "Id",
                      "id" : 193,
                      "_refersTo" : 180,
                      "name" : "t2",
                      "refersTo" : 180,
                      "quoted" : false,
                      "path" : "/Users/csabanagy/work/sqlinspect/sqlinspect.sqlan.test/src/resources/input/sqlite-smells/ambiguousgroups.sql",
                      "endLine" : 9,
                      "startLine" : 9,
                      "startCol" : 24,
                      "endCol" : 25
                    },
                    "_right" : {
                      "type" : "Id",
                      "id" : 194,
                      "_refersTo" : 182,
                      "name" : "_id",
                      "refersTo" : 182,
                      "quoted" : false,
                      "path" : "/Users/csabanagy/work/sqlinspect/sqlinspect.sqlan.test/src/resources/input/sqlite-smells/ambiguousgroups.sql",
                      "endLine" : 9,
                      "startLine" : 9,
                      "startCol" : 27,
                      "endCol" : 29
                    },
                    "kind" : "FIELDSELECTOR",
                    "left" : 193,
                    "right" : 194,
                    "path" : "/Users/csabanagy/work/sqlinspect/sqlinspect.sqlan.test/src/resources/input/sqlite-smells/ambiguousgroups.sql",
                    "endLine" : 9,
                    "startLine" : 9,
                    "startCol" : 24,
                    "endCol" : 29
                  } ],
                  "path" : "/Users/csabanagy/work/sqlinspect/sqlinspect.sqlan.test/src/resources/input/sqlite-smells/ambiguousgroups.sql",
                  "endLine" : 9,
                  "startLine" : 9,
                  "startCol" : 24,
                  "endCol" : 29
                },
                "kind" : "NONE",
                "parameter" : 196,
                "path" : "/Users/csabanagy/work/sqlinspect/sqlinspect.sqlan.test/src/resources/input/sqlite-smells/ambiguousgroups.sql",
                "endLine" : 9,
                "startLine" : 9,
                "startCol" : 24,
                "endCol" : 29
              },
              "paramList" : 197,
              "expression" : 191,
              "path" : "/Users/csabanagy/work/sqlinspect/sqlinspect.sqlan.test/src/resources/input/sqlite-smells/ambiguousgroups.sql",
              "endLine" : 9,
              "startLine" : 9,
              "startCol" : 18,
              "endCol" : 22
            },
            "name" : "count",
            "expression" : 192,
            "kind" : "AS",
            "path" : "/Users/csabanagy/work/sqlinspect/sqlinspect.sqlan.test/src/resources/input/sqlite-smells/ambiguousgroups.sql",
            "endLine" : 9,
            "startLine" : 9,
            "startCol" : 18,
            "endCol" : 39
          } ],
          "path" : "/Users/csabanagy/work/sqlinspect/sqlinspect.sqlan.test/src/resources/input/sqlite-smells/ambiguousgroups.sql",
          "endLine" : 9,
          "startLine" : 9,
          "startCol" : 7,
          "endCol" : 39
        },
        "_from" : {
          "type" : "Join",
          "id" : 211,
          "_left" : {
            "type" : "Id",
            "id" : 201,
            "_refersTo" : 172,
            "name" : "t",
            "refersTo" : 172,
            "quoted" : false,
            "path" : "/Users/csabanagy/work/sqlinspect/sqlinspect.sqlan.test/src/resources/input/sqlite-smells/ambiguousgroups.sql",
            "endLine" : 9,
            "startLine" : 9,
            "startCol" : 46,
            "endCol" : 46
          },
          "_right" : {
            "type" : "Id",
            "id" : 202,
            "_refersTo" : 180,
            "name" : "t2",
            "refersTo" : 180,
            "quoted" : false,
            "path" : "/Users/csabanagy/work/sqlinspect/sqlinspect.sqlan.test/src/resources/input/sqlite-smells/ambiguousgroups.sql",
            "endLine" : 9,
            "startLine" : 9,
            "startCol" : 64,
            "endCol" : 65
          },
          "_condition" : {
            "type" : "On",
            "id" : 210,
            "_expression" : {
              "type" : "BinaryExpression",
              "id" : 209,
              "_left" : {
                "type" : "BinaryExpression",
                "id" : 205,
                "_left" : {
                  "type" : "Id",
                  "id" : 203,
                  "_refersTo" : 180,
                  "name" : "t2",
                  "refersTo" : 180,
                  "quoted" : false,
                  "path" : "/Users/csabanagy/work/sqlinspect/sqlinspect.sqlan.test/src/resources/input/sqlite-smells/ambiguousgroups.sql",
                  "endLine" : 9,
                  "startLine" : 9,
                  "startCol" : 70,
                  "endCol" : 71
                },
                "_right" : {
                  "type" : "Id",
                  "id" : 204,
                  "_refersTo" : 185,
                  "name" : "y",
                  "refersTo" : 185,
                  "quoted" : false,
                  "path" : "/Users/csabanagy/work/sqlinspect/sqlinspect.sqlan.test/src/resources/input/sqlite-smells/ambiguousgroups.sql",
                  "endLine" : 9,
                  "startLine" : 9,
                  "startCol" : 73,
                  "endCol" : 73
                },
                "kind" : "FIELDSELECTOR",
                "left" : 203,
                "right" : 204,
                "path" : "/Users/csabanagy/work/sqlinspect/sqlinspect.sqlan.test/src/resources/input/sqlite-smells/ambiguousgroups.sql",
                "endLine" : 9,
                "startLine" : 9,
                "startCol" : 70,
                "endCol" : 73
              },
              "_right" : {
                "type" : "BinaryExpression",
                "id" : 208,
                "_left" : {
                  "type" : "Id",
                  "id" : 206,
                  "_refersTo" : 172,
                  "name" : "t",
                  "refersTo" : 172,
                  "quoted" : false,
                  "path" : "/Users/csabanagy/work/sqlinspect/sqlinspect.sqlan.test/src/resources/input/sqlite-smells/ambiguousgroups.sql",
                  "endLine" : 9,
                  "startLine" : 9,
                  "startCol" : 77,
                  "endCol" : 77
                },
                "_right" : {
                  "type" : "Id",
                  "id" : 207,
                  "_refersTo" : 174,
                  "name" : "_id",
                  "refersTo" : 174,
                  "quoted" : false,
                  "path" : "/Users/csabanagy/work/sqlinspect/sqlinspect.sqlan.test/src/resources/input/sqlite-smells/ambiguousgroups.sql",
                  "endLine" : 9,
                  "startLine" : 9,
                  "startCol" : 79,
                  "endCol" : 81
                },
                "kind" : "FIELDSELECTOR",
                "left" : 206,
                "right" : 207,
                "path" : "/Users/csabanagy/work/sqlinspect/sqlinspect.sqlan.test/src/resources/input/sqlite-smells/ambiguousgroups.sql",
                "endLine" : 9,
                "startLine" : 9,
                "startCol" : 77,
                "endCol" : 81
              },
              "kind" : "EQUALS",
              "left" : 205,
              "right" : 208,
              "path" : "/Users/csabanagy/work/sqlinspect/sqlinspect.sqlan.test/src/resources/input/sqlite-smells/ambiguousgroups.sql",
              "endLine" : 9,
              "startLine" : 9,
              "startCol" : 70,
              "endCol" : 81
            },
            "expression" : 209,
            "path" : "/Users/csabanagy/work/sqlinspect/sqlinspect.sqlan.test/src/resources/input/sqlite-smells/ambiguousgroups.sql",
            "endLine" : 9,
            "startLine" : 9,
            "startCol" : 67,
            "endCol" : 81
          },
          "condition" : 210,
          "kind" : "LEFTOUTER",
          "left" : 201,
          "right" : 202,
          "path" : "/Users/csabanagy/work/sqlinspect/sqlinspect.sqlan.test/src/resources/input/sqlite-smells/ambiguousgroups.sql",
          "endLine" : 9,
          "startLine" : 9,
          "startCol" : 46,
          "endCol" : 65
        },
        "_groupBy" : {
          "type" : "ExpressionList",
          "id" : 215,
          "expressions" : [ {
            "type" : "BinaryExpression",
            "id" : 214,
            "_left" : {
              "type" : "Id",
              "id" : 212,
              "_refersTo" : 172,
              "name" : "t",
              "refersTo" : 172,
              "quoted" : false,
              "path" : "/Users/csabanagy/work/sqlinspect/sqlinspect.sqlan.test/src/resources/input/sqlite-smells/ambiguousgroups.sql",
              "endLine" : 9,
              "startLine" : 9,
              "startCol" : 92,
              "endCol" : 92
            },
            "_right" : {
              "type" : "Id",
              "id" : 213,
              "_refersTo" : 174,
              "name" : "_id",
              "refersTo" : 174,
              "quoted" : false,
              "path" : "/Users/csabanagy/work/sqlinspect/sqlinspect.sqlan.test/src/resources/input/sqlite-smells/ambiguousgroups.sql",
              "endLine" : 9,
              "startLine" : 9,
              "startCol" : 94,
              "endCol" : 96
            },
            "kind" : "FIELDSELECTOR",
            "left" : 212,
            "right" : 213,
            "path" : "/Users/csabanagy/work/sqlinspect/sqlinspect.sqlan.test/src/resources/input/sqlite-smells/ambiguousgroups.sql",
            "endLine" : 9,
            "startLine" : 9,
            "startCol" : 92,
            "endCol" : 96
          } ],
          "path" : "/Users/csabanagy/work/sqlinspect/sqlinspect.sqlan.test/src/resources/input/sqlite-smells/ambiguousgroups.sql",
          "endLine" : 9,
          "startLine" : 9,
          "startCol" : 92,
          "endCol" : 96
        },
        "from" : 211,
        "columnList" : 189,
        "groupBy" : 215,
        "path" : "/Users/csabanagy/work/sqlinspect/sqlinspect.sqlan.test/src/resources/input/sqlite-smells/ambiguousgroups.sql",
        "endLine" : 9,
        "startLine" : 9,
        "startCol" : 0,
        "endCol" : 96
      },
      "query" : 200,
      "error" : false,
      "internalId" : 0,
      "errorLine" : 0,
      "errorCol" : 0,
      "path" : "/Users/csabanagy/work/sqlinspect/sqlinspect.sqlan.test/src/resources/input/sqlite-smells/ambiguousgroups.sql",
      "endLine" : 9,
      "startLine" : 9,
      "startCol" : 0,
      "endCol" : 96
    } ],
    "name" : "DB",
    "endLine" : 0,
    "startLine" : 0,
    "startCol" : 0,
    "endCol" : 0
  },
  "innerFunctions" : [ 120, 155 ],
  "databases" : [ 101 ],
  "defaultDatabase" : 101,
  "endLine" : 0,
  "startLine" : 0,
  "startCol" : 0,
  "endCol" : 0
}